proyecto_02_uP/uP_tb.vcd
$date
	Thu Nov 19 01:23:46 2020
$end
$version
	Icarus Verilog
$end
$timescale
	1ps
$end
$scope module testbench $end
$var wire 4 ! data_bus [3:0] $end
$var wire 1 " z_flag $end
$var wire 8 # program_byte [7:0] $end
$var wire 1 $ phase $end
$var wire 4 % oprnd [3:0] $end
$var wire 4 & instr [3:0] $end
$var wire 1 ' c_flag $end
$var wire 12 ( address_RAM [11:0] $end
$var wire 4 ) accu [3:0] $end
$var wire 12 * PC [11:0] $end
$var wire 4 + FF_out [3:0] $end
$var reg 1 , clock $end
$var reg 4 - pushbuttons [3:0] $end
$var reg 1 . reset $end
$var integer 32 / immediateDelay [31:0] $end
$var integer 32 0 jumpDelay [31:0] $end
$var integer 32 1 memoryDelay [31:0] $end
$var integer 32 2 nota [31:0] $end
$scope module uPmodule $end
$var wire 1 , clock $end
$var wire 4 3 data_bus [3:0] $end
$var wire 4 4 pushbuttons [3:0] $end
$var wire 1 . reset $end
$var wire 1 5 zero $end
$var wire 1 " z_flag $end
$var wire 1 6 weRAM $end
$var wire 8 7 program_byte [7:0] $end
$var wire 1 $ phase $end
$var wire 4 8 oprnd [3:0] $end
$var wire 1 9 oeOprnd $end
$var wire 1 : oeIN $end
$var wire 1 ; oeALU $end
$var wire 1 < loadPC $end
$var wire 1 = loadOut $end
$var wire 1 > loadFlags $end
$var wire 1 ? loadA $end
$var wire 4 @ instr [3:0] $end
$var wire 1 A incPC $end
$var wire 1 B csRAM $end
$var wire 1 C carry $end
$var wire 1 ' c_flag $end
$var wire 4 D aluOutput [3:0] $end
$var wire 12 E address_RAM [11:0] $end
$var wire 4 F accu [3:0] $end
$var wire 3 G S [2:0] $end
$var wire 12 H PC [11:0] $end
$var wire 4 I FF_out [3:0] $end
$scope module ALUbuffer $end
$var wire 4 J Y [3:0] $end
$var wire 1 ; enabled $end
$var wire 4 K A [3:0] $end
$upscope $end
$scope module ALUmodule $end
$var wire 4 L B [3:0] $end
$var wire 3 M F [2:0] $end
$var wire 1 5 Zero $end
$var wire 4 N S_out [3:0] $end
$var wire 1 C C $end
$var wire 4 O A [3:0] $end
$var reg 5 P regS [4:0] $end
$upscope $end
$scope module RAMmodule $end
$var wire 12 Q address [11:0] $end
$var wire 1 B csRAM $end
$var wire 4 R data [3:0] $end
$var wire 1 6 weRAM $end
$var reg 4 S data_out [3:0] $end
$upscope $end
$scope module accumulatorFF $end
$var wire 4 T D [3:0] $end
$var wire 1 , clk $end
$var wire 1 ? enabled $end
$var wire 1 . reset $end
$var reg 4 U Q [3:0] $end
$upscope $end
$scope module decodeModule $end
$var wire 7 V address [6:0] $end
$var wire 13 W signals [12:0] $end
$var reg 13 X signalsReg [12:0] $end
$upscope $end
$scope module fetchFF $end
$var wire 1 , clk $end
$var wire 1 Y enabled $end
$var wire 1 . reset $end
$var wire 8 Z D [7:0] $end
$var reg 8 [ Q [7:0] $end
$upscope $end
$scope module flagsFF $end
$var wire 2 \ D [1:0] $end
$var wire 1 , clk $end
$var wire 1 > enabled $end
$var wire 1 . reset $end
$var reg 2 ] Q [1:0] $end
$upscope $end
$scope module inputBuffer $end
$var wire 4 ^ A [3:0] $end
$var wire 4 _ Y [3:0] $end
$var wire 1 : enabled $end
$upscope $end
$scope module oprndBuffer $end
$var wire 4 ` A [3:0] $end
$var wire 4 a Y [3:0] $end
$var wire 1 9 enabled $end
$upscope $end
$scope module outputsFF $end
$var wire 4 b D [3:0] $end
$var wire 1 , clk $end
$var wire 1 = enabled $end
$var wire 1 . reset $end
$var reg 4 c Q [3:0] $end
$upscope $end
$scope module phaseFF $end
$var wire 1 , clk $end
$var wire 1 . reset $end
$var reg 1 $ Q $end
$upscope $end
$scope module programCounter $end
$var wire 1 , clk $end
$var wire 1 A enabled $end
$var wire 1 < load $end
$var wire 12 d loadData [11:0] $end
$var wire 1 . reset $end
$var reg 12 e outValue [11:0] $end
$upscope $end
$scope module programROM $end
$var wire 12 f address [11:0] $end
$var wire 8 g data [7:0] $end
$upscope $end
$upscope $end
$upscope $end
$enddefinitions $end
#0
$dumpvars
bx g
bx f
bx e
bx d
bx c
bx b
bx a
bx `
bx _
b110 ^
bx ]
bx \
bx [
bx Z
xY
bx X
bx W
bx V
bx U
bx T
bx S
bx R
bx Q
bx P
bx O
bx N
bx M
bx L
bx K
bx J
bx I
bx H
bx G
bx F
bx E
bx D
xC
xB
xA
bx @
x?
x>
x=
x<
x;
x:
x9
bx 8
bx 7
x6
x5
b110 4
bx 3
b0 2
b100010100 1
b100010100 0
b10000 /
0.
b110 -
0,
bx +
bx *
bx )
bx (
x'
bx &
bx %
x$
bx #
x"
bx !
$end
#2
b0 !
b0 3
b0 J
b0 L
b0 R
b0 _
b0 a
b0 b
0=
09
0:
1;
06
0B
b0 G
b0 M
0>
0?
0<
1A
b1000000001000 W
b1000000001000 X
15
b0 D
b0 K
b0 N
b0 T
b1 \
0C
b0 %
b0 8
b0 `
b0 &
b0 @
0"
0'
1Y
b0 P
b1001111 (
b1001111 E
b1001111 Q
b1001111 d
b1001111 #
b1001111 7
b1001111 Z
b1001111 g
b0 *
b0 H
b0 e
b0 f
b0 [
b0 ]
b0 V
0$
b0 )
b0 F
b0 O
b0 U
b0 +
b0 I
b0 c
1.
#3
0.
#5
b0 \
05
b1111 D
b1111 K
b1111 N
b1111 T
b1111 P
b1111 !
b1111 3
b1111 J
b1111 L
b1111 R
b1111 _
b1111 a
b1111 b
19
0;
b10 G
b10 M
1>
1?
0A
b11010000010 W
b11010000010 X
0Y
b1111 %
b1111 8
b1111 `
b100 &
b100 @
b100001 V
1$
b1001111 [
b111111011111 (
b111111011111 E
b111111011111 Q
b111111011111 d
b11011111 #
b11011111 7
b11011111 Z
b11011111 g
b1 *
b1 H
b1 e
b1 f
1,
#10
0,
#15
09
1;
b0 G
b0 M
0>
0?
1A
b1000000001000 W
b1000000001000 X
1Y
b100000 V
0$
b1111 )
b1111 F
b1111 O
b1111 U
1,
#16
b1000110 2
#20
0,
#25
1=
0A
b1001 W
b1001 X
0Y
b1101 &
b1101 @
b1101001 V
1$
b11011111 [
b111101010001 (
b111101010001 E
b111101010001 Q
b111101010001 d
b1010001 #
b1010001 7
b1010001 Z
b1010001 g
b10 *
b10 H
b10 e
b10 f
1,
#30
0,
#35
0=
1A
b1000000001000 W
b1000000001000 X
1Y
b1101000 V
0$
b1111 +
b1111 I
b1111 c
1,
#36
b1100111 2
#40
0,
#45
b110 D
b110 K
b110 N
b110 T
b110 P
b110 !
b110 3
b110 J
b110 L
b110 R
b110 _
b110 a
b110 b
1:
0;
b10 G
b10 M
1>
1?
0A
b11010000100 W
b11010000100 X
0Y
b1 %
b1 8
b1 `
b101 &
b101 @
b101001 V
1$
b1010001 [
b101000000 (
b101000000 E
b101000000 Q
b101000000 d
b1000000 #
b1000000 7
b1000000 Z
b1000000 g
b11 *
b11 H
b11 e
b11 f
1,
#50
0,
#55
0:
1;
b0 G
b0 M
0>
0?
1A
b1000000001000 W
b1000000001000 X
1Y
b101000 V
0$
b110 )
b110 F
b110 O
b110 U
1,
#56
b10001000 2
#60
0,
#65
b1 \
15
b0 D
b0 K
b0 N
b0 T
b0 P
b0 !
b0 3
b0 J
b0 L
b0 R
b0 _
b0 a
b0 b
19
0;
b10 G
b10 M
1>
1?
0A
b11010000010 W
b11010000010 X
0Y
b0 %
b0 8
b0 `
b100 &
b100 @
b100001 V
1$
b1000000 [
b1001111 (
b1001111 E
b1001111 Q
b1001111 d
b1001111 #
b1001111 7
b1001111 Z
b1001111 g
b100 *
b100 H
b100 e
b100 f
1,
#70
0,
#75
09
1;
b0 G
b0 M
0>
0?
1A
b1000000001000 W
b1000000001000 X
1"
1Y
b1 ]
b100010 V
0$
b0 )
b0 F
b0 O
b0 U
1,
#80
0,
#85
b0 \
05
b1111 D
b1111 K
b1111 N
b1111 T
b1111 P
b1111 !
b1111 3
b1111 J
b1111 L
b1111 R
b1111 _
b1111 a
b1111 b
19
0;
b10 G
b10 M
1>
1?
0A
b11010000010 W
b11010000010 X
0Y
b1111 %
b1111 8
b1111 `
b100011 V
1$
b1001111 [
b111110101010 (
b111110101010 E
b111110101010 Q
b111110101010 d
b10101010 #
b10101010 7
b10101010 Z
b10101010 g
b101 *
b101 H
b101 e
b101 f
1,
#90
0,
#95
09
1;
b0 G
b0 M
0>
0?
1A
b1000000001000 W
b1000000001000 X
0"
1Y
b0 ]
b100000 V
0$
b1111 )
b1111 F
b1111 O
b1111 U
1,
#100
0,
#105
b1001 D
b1001 K
b1001 N
b1001 T
b10 \
1C
b1010 !
b1010 3
b1010 J
b1010 L
b1010 R
b1010 _
b1010 a
b1010 b
b11001 P
19
0;
b11 G
b11 M
1>
1?
0A
b11011000010 W
b11011000010 X
0Y
b1010 %
b1010 8
b1010 `
b1010 &
b1010 @
b1010001 V
1$
b10101010 [
b101000101000 (
b101000101000 E
b101000101000 Q
b101000101000 d
b101000 #
b101000 7
b101000 Z
b101000 g
b110 *
b110 H
b110 e
b110 f
1,
#110
0,
#115
b0 \
0C
b1001 !
b1001 3
b1001 J
b1001 L
b1001 R
b1001 _
b1001 a
b1001 b
09
1;
b0 G
b0 M
0>
0?
1A
b1000000001000 W
b1000000001000 X
b1001 D
b1001 K
b1001 N
b1001 T
1'
1Y
b1001 P
b10 ]
b1010100 V
0$
b1001 )
b1001 F
b1001 O
b1001 U
1,
#116
b10101001 2
#120
0,
#125
b1 D
b1 K
b1 N
b1 T
b1000 !
b1000 3
b1000 J
b1000 L
b1000 R
b1000 _
b1000 a
b1000 b
b1 P
19
0;
b1 G
b1 M
1>
0A
b1001000010 W
b1001000010 X
0Y
b1000 %
b1000 8
b1000 `
b10 &
b10 @
b10101 V
1$
b101000 [
b100001001010 (
b100001001010 E
b100001001010 Q
b100001001010 d
b1001010 #
b1001010 7
b1001010 Z
b1001010 g
b111 *
b111 H
b111 e
b111 f
1,
#130
0,
#135
b1001 D
b1001 K
b1001 N
b1001 T
b1001 !
b1001 3
b1001 J
b1001 L
b1001 R
b1001 _
b1001 a
b1001 b
b1001 P
09
1;
b0 G
b0 M
0>
1A
b1000000001000 W
b1000000001000 X
0'
1Y
b0 ]
b10000 V
0$
1,
#136
b11001010 2
#140
0,
#145
b1010 D
b1010 K
b1010 N
b1010 T
b1010 P
b1010 !
b1010 3
b1010 J
b1010 L
b1010 R
b1010 _
b1010 a
b1010 b
19
0;
b10 G
b10 M
1>
1?
0A
b11010000010 W
b11010000010 X
0Y
b1010 %
b1010 8
b1010 `
b100 &
b100 @
b100001 V
1$
b1001010 [
b101000101100 (
b101000101100 E
b101000101100 Q
b101000101100 d
b101100 #
b101100 7
b101100 Z
b101100 g
b1000 *
b1000 H
b1000 e
b1000 f
1,
#150
0,
#155
09
1;
b0 G
b0 M
0>
0?
1A
b1000000001000 W
b1000000001000 X
1Y
b100000 V
0$
b1010 )
b1010 F
b1010 O
b1010 U
1,
#160
0,
#165
b10 \
1C
b1110 D
b1110 K
b1110 N
b1110 T
b1100 !
b1100 3
b1100 J
b1100 L
b1100 R
b1100 _
b1100 a
b1100 b
b11110 P
19
0;
b1 G
b1 M
1>
0A
b1001000010 W
b1001000010 X
0Y
b1100 %
b1100 8
b1100 `
b10 &
b10 @
b10001 V
1$
b101100 [
b110010100001 (
b110010100001 E
b110010100001 Q
b110010100001 d
b10100001 #
b10100001 7
b10100001 Z
b10100001 g
b1001 *
b1001 H
b1001 e
b1001 f
1,
#170
0,
#175
b1010 D
b1010 K
b1010 N
b1010 T
b0 \
0C
b1010 !
b1010 3
b1010 J
b1010 L
b1010 R
b1010 _
b1010 a
b1010 b
b1010 P
09
1;
b0 G
b0 M
0>
1A
b1000000001000 W
b1000000001000 X
1'
1Y
b10 ]
b10100 V
0$
1,
#176
b11101011 2
#180
0,
#185
b1011 D
b1011 K
b1011 N
b1011 T
b0 \
0C
b1 !
b1 3
b1 J
b1 L
b1 R
b1 _
b1 a
b1 b
b1011 P
19
0;
b11 G
b11 M
1>
1?
0A
b11011000010 W
b11011000010 X
0Y
b1 %
b1 8
b1 `
b1010 &
b1010 @
b1010101 V
1$
b10100001 [
b111101011 (
b111101011 E
b111101011 Q
b111101011 d
b11101011 #
b11101011 7
b11101011 Z
b11101011 g
b1010 *
b1010 H
b1010 e
b1010 f
1,
#190
0,
#195
b1011 !
b1011 3
b1011 J
b1011 L
b1011 R
b1011 _
b1011 a
b1011 b
09
1;
b0 G
b0 M
0>
0?
1A
b1000000001000 W
b1000000001000 X
b1011 D
b1011 K
b1011 N
b1011 T
0'
1Y
b1011 P
b0 ]
b1010000 V
0$
b1011 )
b1011 F
b1011 O
b1011 U
1,
#196
b100001100 2
#200
0,
#205
b100 D
b100 K
b100 N
b100 T
b1011 !
b1011 3
b1011 J
b1011 L
b1011 R
b1011 _
b1011 a
b1011 b
b100 P
19
0;
b100 G
b100 M
1>
1?
0A
b11100000010 W
b11100000010 X
0Y
b1011 %
b1011 8
b1011 `
b1110 &
b1110 @
b1110001 V
1$
b11101011 [
b101111010000 (
b101111010000 E
b101111010000 Q
b101111010000 d
b11010000 #
b11010000 7
b11010000 Z
b11010000 g
b1011 *
b1011 H
b1011 e
b1011 f
1,
#210
0,
#215
b100 !
b100 3
b100 J
b100 L
b100 R
b100 _
b100 a
b100 b
09
1;
b0 G
b0 M
0>
0?
1A
b1000000001000 W
b1000000001000 X
b100 D
b100 K
b100 N
b100 T
1Y
b100 P
b1110000 V
0$
b100 )
b100 F
b100 O
b100 U
1,
#216
b101001110 2
#220
0,
#225
1=
0A
b1001 W
b1001 X
0Y
b0 %
b0 8
b0 `
b1101 &
b1101 @
b1101001 V
1$
b11010000 [
b1010000 (
b1010000 E
b1010000 Q
b1010000 d
b1010000 #
b1010000 7
b1010000 Z
b1010000 g
b1100 *
b1100 H
b1100 e
b1100 f
1,
#230
0,
#235
0=
1A
b1000000001000 W
b1000000001000 X
1Y
b1101000 V
0$
b100 +
b100 I
b100 c
1,
#236
b1110 -
b1110 4
b1110 ^
b101101111 2
#240
0,
#245
b1110 D
b1110 K
b1110 N
b1110 T
b1110 P
b1110 !
b1110 3
b1110 J
b1110 L
b1110 R
b1110 _
b1110 a
b1110 b
1:
0;
b10 G
b10 M
1>
1?
0A
b11010000100 W
b11010000100 X
0Y
b101 &
b101 @
b101001 V
1$
b1010000 [
b1110000 (
b1110000 E
b1110000 Q
b1110000 d
b1110000 #
b1110000 7
b1110000 Z
b1110000 g
b1101 *
b1101 H
b1101 e
b1101 f
1,
#250
0,
#255
0:
1;
b0 G
b0 M
0>
0?
1A
b1000000001000 W
b1000000001000 X
1Y
b101000 V
0$
b1110 )
b1110 F
b1110 O
b1110 U
1,
#256
b110010000 2
#260
0,
#265
16
1B
b1000000111000 W
b1000000111000 X
0Y
b111 &
b111 @
b111001 V
1$
b1110000 [
b0 (
b0 E
b0 Q
b0 d
b0 #
b0 7
b0 Z
b0 g
b1110 *
b1110 H
b1110 e
b1110 f
1,
#270
0,
#275
06
0B
b1000000001000 W
b1000000001000 X
1Y
b1001111 (
b1001111 E
b1001111 Q
b1001111 d
b1001111 #
b1001111 7
b1001111 Z
b1001111 g
b1111 *
b1111 H
b1111 e
b1111 f
b111000 V
0$
1,
#280
0,
#285
b1111 D
b1111 K
b1111 N
b1111 T
b1111 P
b1111 !
b1111 3
b1111 J
b1111 L
b1111 R
b1111 _
b1111 a
b1111 b
19
0;
b10 G
b10 M
1>
1?
0A
b11010000010 W
b11010000010 X
0Y
b1111 %
b1111 8
b1111 `
b100 &
b100 @
b100001 V
1$
b1001111 [
b111101110001 (
b111101110001 E
b111101110001 Q
b111101110001 d
b1110001 #
b1110001 7
b1110001 Z
b1110001 g
b10000 *
b10000 H
b10000 e
b10000 f
1,
#290
0,
#295
09
1;
b0 G
b0 M
0>
0?
1A
b1000000001000 W
b1000000001000 X
1Y
b100000 V
0$
b1111 )
b1111 F
b1111 O
b1111 U
1,
#300
0,
#305
16
1B
b1000000111000 W
b1000000111000 X
0Y
b1 %
b1 8
b1 `
b111 &
b111 @
b111001 V
1$
b1110001 [
b100010001 (
b100010001 E
b100010001 Q
b100010001 d
b10001 #
b10001 7
b10001 Z
b10001 g
b10001 *
b10001 H
b10001 e
b10001 f
1,
#310
0,
#315
06
0B
b1000000001000 W
b1000000001000 X
1Y
b101001010 (
b101001010 E
b101001010 Q
b101001010 d
b1001010 #
b1001010 7
b1001010 Z
b1001010 g
b10010 *
b10010 H
b10010 e
b10010 f
b111000 V
0$
1,
#320
0,
#325
b1010 D
b1010 K
b1010 N
b1010 T
b1010 P
b1010 !
b1010 3
b1010 J
b1010 L
b1010 R
b1010 _
b1010 a
b1010 b
19
0;
b10 G
b10 M
1>
1?
0A
b11010000010 W
b11010000010 X
0Y
b1010 %
b1010 8
b1010 `
b100 &
b100 @
b100001 V
1$
b1001010 [
b101001110010 (
b101001110010 E
b101001110010 Q
b101001110010 d
b1110010 #
b1110010 7
b1110010 Z
b1110010 g
b10011 *
b10011 H
b10011 e
b10011 f
1,
#330
0,
#335
09
1;
b0 G
b0 M
0>
0?
1A
b1000000001000 W
b1000000001000 X
1Y
b100000 V
0$
b1010 )
b1010 F
b1010 O
b1010 U
1,
#340
0,
#345
16
1B
b1000000111000 W
b1000000111000 X
0Y
b10 %
b10 8
b10 `
b111 &
b111 @
b111001 V
1$
b1110010 [
b1000100010 (
b1000100010 E
b1000100010 Q
b1000100010 d
b100010 #
b100010 7
b100010 Z
b100010 g
b10100 *
b10100 H
b10100 e
b10100 f
1,
#350
0,
#355
06
0B
b1000000001000 W
b1000000001000 X
1Y
b1001000001 (
b1001000001 E
b1001000001 Q
b1001000001 d
b1000001 #
b1000001 7
b1000001 Z
b1000001 g
b10101 *
b10101 H
b10101 e
b10101 f
b111000 V
0$
1,
#360
0,
#365
b1 D
b1 K
b1 N
b1 T
b1 P
b1 !
b1 3
b1 J
b1 L
b1 R
b1 _
b1 a
b1 b
19
0;
b10 G
b10 M
1>
1?
0A
b11010000010 W
b11010000010 X
0Y
b1 %
b1 8
b1 `
b100 &
b100 @
b100001 V
1$
b1000001 [
b101110011 (
b101110011 E
b101110011 Q
b101110011 d
b1110011 #
b1110011 7
b1110011 Z
b1110011 g
b10110 *
b10110 H
b10110 e
b10110 f
1,
#370
0,
#375
09
1;
b0 G
b0 M
0>
0?
1A
b1000000001000 W
b1000000001000 X
1Y
b100000 V
0$
b1 )
b1 F
b1 O
b1 U
1,
#380
0,
#385
16
1B
b1000000111000 W
b1000000111000 X
0Y
b11 %
b11 8
b11 `
b111 &
b111 @
b111001 V
1$
b1110011 [
b1100110011 (
b1100110011 E
b1100110011 Q
b1100110011 d
b110011 #
b110011 7
b110011 Z
b110011 g
b10111 *
b10111 H
b10111 e
b10111 f
1,
#390
0,
#395
06
0B
b1000000001000 W
b1000000001000 X
1Y
b1101100000 (
b1101100000 E
b1101100000 Q
b1101100000 d
b1100000 #
b1100000 7
b1100000 Z
b1100000 g
b11000 *
b11000 H
b11000 e
b11000 f
b111000 V
0$
1,
#400
0,
#405
b0 \
05
b1110 D
b1110 K
b1110 N
b1110 T
b1110 P
b1110 !
b1110 3
b1110 J
b1110 L
b1110 R
b1110 _
b1110 a
b1110 b
b1110 S
0;
1B
b10 G
b10 M
1>
1?
b1011010100000 W
b1011010100000 X
0Y
b0 %
b0 8
b0 `
b110 &
b110 @
b110001 V
1$
b1100000 [
b0 (
b0 E
b0 Q
b0 d
b0 #
b0 7
b0 Z
b0 g
b11001 *
b11001 H
b11001 e
b11001 f
1,
#410
0,
#415
1;
0B
b0 G
b0 M
0>
0?
b1000000001000 W
b1000000001000 X
b0 \
05
b1110 D
b1110 K
b1110 N
b1110 T
b1110 P
b1110 !
b1110 3
b1110 J
b1110 L
b1110 R
b1110 _
b1110 a
b1110 b
bx S
1Y
b1100001 (
b1100001 E
b1100001 Q
b1100001 d
b1100001 #
b1100001 7
b1100001 Z
b1100001 g
b11010 *
b11010 H
b11010 e
b11010 f
b110000 V
0$
b1110 )
b1110 F
b1110 O
b1110 U
1,
#420
0,
#425
b1111 D
b1111 K
b1111 N
b1111 T
b1111 P
b1111 !
b1111 3
b1111 J
b1111 L
b1111 R
b1111 _
b1111 a
b1111 b
b1111 S
0;
1B
b10 G
b10 M
1>
1?
b1011010100000 W
b1011010100000 X
0Y
b1 %
b1 8
b1 `
b110001 V
1$
b1100001 [
b100010001 (
b100010001 E
b100010001 Q
b100010001 d
b10001 #
b10001 7
b10001 Z
b10001 g
b11011 *
b11011 H
b11011 e
b11011 f
1,
#430
0,
#435
1;
0B
b0 G
b0 M
0>
0?
b1000000001000 W
b1000000001000 X
b0 \
05
b1111 D
b1111 K
b1111 N
b1111 T
b1111 P
b1111 !
b1111 3
b1111 J
b1111 L
b1111 R
b1111 _
b1111 a
b1111 b
bx S
1Y
b101100010 (
b101100010 E
b101100010 Q
b101100010 d
b1100010 #
b1100010 7
b1100010 Z
b1100010 g
b11100 *
b11100 H
b11100 e
b11100 f
b110000 V
0$
b1111 )
b1111 F
b1111 O
b1111 U
1,
#440
0,
#445
b1010 D
b1010 K
b1010 N
b1010 T
b1010 P
b1010 !
b1010 3
b1010 J
b1010 L
b1010 R
b1010 _
b1010 a
b1010 b
b1010 S
0;
1B
b10 G
b10 M
1>
1?
b1011010100000 W
b1011010100000 X
0Y
b10 %
b10 8
b10 `
b110001 V
1$
b1100010 [
b1000100010 (
b1000100010 E
b1000100010 Q
b1000100010 d
b100010 #
b100010 7
b100010 Z
b100010 g
b11101 *
b11101 H
b11101 e
b11101 f
1,
#450
0,
#455
1;
0B
b0 G
b0 M
0>
0?
b1000000001000 W
b1000000001000 X
b0 \
05
b1010 D
b1010 K
b1010 N
b1010 T
b1010 P
b1010 !
b1010 3
b1010 J
b1010 L
b1010 R
b1010 _
b1010 a
b1010 b
bx S
1Y
b1001100011 (
b1001100011 E
b1001100011 Q
b1001100011 d
b1100011 #
b1100011 7
b1100011 Z
b1100011 g
b11110 *
b11110 H
b11110 e
b11110 f
b110000 V
0$
b1010 )
b1010 F
b1010 O
b1010 U
1,
#460
0,
#465
b1 D
b1 K
b1 N
b1 T
b1 P
b1 !
b1 3
b1 J
b1 L
b1 R
b1 _
b1 a
b1 b
b1 S
0;
1B
b10 G
b10 M
1>
1?
b1011010100000 W
b1011010100000 X
0Y
b11 %
b11 8
b11 `
b110001 V
1$
b1100011 [
b1100110011 (
b1100110011 E
b1100110011 Q
b1100110011 d
b110011 #
b110011 7
b110011 Z
b110011 g
b11111 *
b11111 H
b11111 e
b11111 f
1,
#470
0,
#475
1;
0B
b0 G
b0 M
0>
0?
b1000000001000 W
b1000000001000 X
b0 \
05
b1 D
b1 K
b1 N
b1 T
b1 P
b1 !
b1 3
b1 J
b1 L
b1 R
b1 _
b1 a
b1 b
bx S
1Y
b1111001010 (
b1111001010 E
b1111001010 Q
b1111001010 d
b11001010 #
b11001010 7
b11001010 Z
b11001010 g
b100000 *
b100000 H
b100000 e
b100000 f
b110000 V
0$
b1 )
b1 F
b1 O
b1 U
1,
#476
b111100000 2
#480
0,
#485
1<
0A
b100000001000 W
b100000001000 X
0Y
b1010 %
b1010 8
b1010 `
b1100 &
b1100 @
b1100001 V
1$
b11001010 [
b101000000001 (
b101000000001 E
b101000000001 Q
b101000000001 d
b1 #
b1 7
b1 Z
b1 g
b100001 *
b100001 H
b100001 e
b100001 f
1,
#490
0,
#495
0<
1A
b1000000001000 W
b1000000001000 X
1Y
b101001000001 (
b101001000001 E
b101001000001 Q
b101001000001 d
b1000001 #
b1000001 7
b1000001 Z
b1000001 g
b101000000001 *
b101000000001 H
b101000000001 e
b101000000001 f
b1100000 V
0$
1,
#500
0,
#505
b1 !
b1 3
b1 J
b1 L
b1 R
b1 _
b1 a
b1 b
19
0;
b10 G
b10 M
1>
1?
0A
b11010000010 W
b11010000010 X
0Y
b1 %
b1 8
b1 `
b100 &
b100 @
b100001 V
1$
b1000001 [
b100100010 (
b100100010 E
b100100010 Q
b100100010 d
b100010 #
b100010 7
b100010 Z
b100010 g
b101000000010 *
b101000000010 H
b101000000010 e
b101000000010 f
1,
#510
0,
#515
09
1;
b0 G
b0 M
0>
0?
1A
b1000000001000 W
b1000000001000 X
1Y
b100000 V
0$
1,
#520
0,
#525
05
b10 \
1C
b1111 D
b1111 K
b1111 N
b1111 T
b10 !
b10 3
b10 J
b10 L
b10 R
b10 _
b10 a
b10 b
b11111 P
19
0;
b1 G
b1 M
1>
0A
b1001000010 W
b1001000010 X
0Y
b10 %
b10 8
b10 `
b10 &
b10 @
b10001 V
1$
b100010 [
b1000000000 (
b1000000000 E
b1000000000 Q
b1000000000 d
b0 #
b0 7
b0 Z
b0 g
b101000000011 *
b101000000011 H
b101000000011 e
b101000000011 f
1,
#530
0,
#535
b1 D
b1 K
b1 N
b1 T
b0 \
0C
b1 !
b1 3
b1 J
b1 L
b1 R
b1 _
b1 a
b1 b
b1 P
09
1;
b0 G
b0 M
0>
1A
b1000000001000 W
b1000000001000 X
1'
1Y
b10 ]
b10100 V
0$
1,
#540
0,
#545
1<
0A
b100000001000 W
b100000001000 X
0Y
b0 %
b0 8
b0 `
b0 &
b0 @
b101 V
1$
b0 [
b1010000 (
b1010000 E
b1010000 Q
b1010000 d
b1010000 #
b1010000 7
b1010000 Z
b1010000 g
b101000000100 *
b101000000100 H
b101000000100 e
b101000000100 f
1,
#550
0,
#555
0<
1A
b1000000001000 W
b1000000001000 X
1Y
b1001111 (
b1001111 E
b1001111 Q
b1001111 d
b1001111 #
b1001111 7
b1001111 Z
b1001111 g
b1010000 *
b1010000 H
b1010000 e
b1010000 f
b100 V
0$
1,
#560
0,
#565
b1111 D
b1111 K
b1111 N
b1111 T
b1111 P
b1111 !
b1111 3
b1111 J
b1111 L
b1111 R
b1111 _
b1111 a
b1111 b
19
0;
b10 G
b10 M
1>
1?
0A
b11010000010 W
b11010000010 X
0Y
b1111 %
b1111 8
b1111 `
b100 &
b100 @
b100101 V
1$
b1001111 [
b111110100001 (
b111110100001 E
b111110100001 Q
b111110100001 d
b10100001 #
b10100001 7
b10100001 Z
b10100001 g
b1010001 *
b1010001 H
b1010001 e
b1010001 f
1,
#570
0,
#575
09
1;
b0 G
b0 M
0>
0?
1A
b1000000001000 W
b1000000001000 X
0'
1Y
b0 ]
b100000 V
0$
b1111 )
b1111 F
b1111 O
b1111 U
1,
#580
0,
#585
15
b0 D
b0 K
b0 N
b0 T
b11 \
1C
b1 !
b1 3
b1 J
b1 L
b1 R
b1 _
b1 a
b1 b
b10000 P
19
0;
b11 G
b11 M
1>
1?
0A
b11011000010 W
b11011000010 X
0Y
b1 %
b1 8
b1 `
b1010 &
b1010 @
b1010001 V
1$
b10100001 [
b110001111 (
b110001111 E
b110001111 Q
b110001111 d
b10001111 #
b10001111 7
b10001111 Z
b10001111 g
b1010010 *
b1010010 H
b1010010 e
b1010010 f
1,
#590
0,
#595
b0 !
b0 3
b0 J
b0 L
b0 R
b0 _
b0 a
b0 b
09
1;
b0 G
b0 M
0>
0?
1A
b1000000001000 W
b1000000001000 X
15
b0 D
b0 K
b0 N
b0 T
b1 \
0C
1"
1'
1Y
b0 P
b11 ]
b1010110 V
0$
b0 )
b0 F
b0 O
b0 U
1,
#600
0,
#605
1<
0A
b100000001000 W
b100000001000 X
0Y
b1111 %
b1111 8
b1111 `
b1000 &
b1000 @
b1000111 V
1$
b10001111 [
b111101001001 (
b111101001001 E
b111101001001 Q
b111101001001 d
b1001001 #
b1001001 7
b1001001 Z
b1001001 g
b1010011 *
b1010011 H
b1010011 e
b1010011 f
1,
#610
0,
#615
0<
1A
b1000000001000 W
b1000000001000 X
1Y
b111101000110 (
b111101000110 E
b111101000110 Q
b111101000110 d
b1000110 #
b1000110 7
b1000110 Z
b1000110 g
b111101001001 *
b111101001001 H
b111101001001 e
b111101001001 f
b1000110 V
0$
1,
#620
0,
#625
b0 \
05
b110 D
b110 K
b110 N
b110 T
b110 P
b110 !
b110 3
b110 J
b110 L
b110 R
b110 _
b110 a
b110 b
19
0;
b10 G
b10 M
1>
1?
0A
b11010000010 W
b11010000010 X
0Y
b110 %
b110 8
b110 `
b100 &
b100 @
b100111 V
1$
b1000110 [
b11000100010 (
b11000100010 E
b11000100010 Q
b11000100010 d
b100010 #
b100010 7
b100010 Z
b100010 g
b111101001010 *
b111101001010 H
b111101001010 e
b111101001010 f
1,
#630
0,
#635
09
1;
b0 G
b0 M
0>
0?
1A
b1000000001000 W
b1000000001000 X
0"
0'
1Y
b0 ]
b100000 V
0$
b110 )
b110 F
b110 O
b110 U
1,
#640
0,
#645
b0 \
05
b100 D
b100 K
b100 N
b100 T
b10 !
b10 3
b10 J
b10 L
b10 R
b10 _
b10 a
b10 b
b100 P
19
0;
b1 G
b1 M
1>
0A
b1001000010 W
b1001000010 X
0Y
b10 %
b10 8
b10 `
b10 &
b10 @
b10001 V
1$
b100010 [
b1000001111 (
b1000001111 E
b1000001111 Q
b1000001111 d
b1111 #
b1111 7
b1111 Z
b1111 g
b111101001011 *
b111101001011 H
b111101001011 e
b111101001011 f
1,
#650
0,
#655
b110 D
b110 K
b110 N
b110 T
b110 !
b110 3
b110 J
b110 L
b110 R
b110 _
b110 a
b110 b
b110 P
09
1;
b0 G
b0 M
0>
1A
b1000000001000 W
b1000000001000 X
1Y
b10000 V
0$
1,
#660
0,
#665
0Y
b1111 %
b1111 8
b1111 `
b0 &
b0 @
b1 V
1$
b1111 [
b111111110000 (
b111111110000 E
b111111110000 Q
b111111110000 d
b11110000 #
b11110000 7
b11110000 Z
b11110000 g
b111101001100 *
b111101001100 H
b111101001100 e
b111101001100 f
1,
#670
0,
