proyecto_02_uP/uP_tb.vcd
$date
	Mon Nov 16 09:54:39 2020
$end
$version
	Icarus Verilog
$end
$timescale
	1ps
$end
$scope module testbench $end
$var wire 4 ! data_bus [3:0] $end
$var wire 1 " z_flag $end
$var wire 8 # program_byte [7:0] $end
$var wire 1 $ phase $end
$var wire 4 % oprnd [3:0] $end
$var wire 4 & instr [3:0] $end
$var wire 1 ' c_flag $end
$var wire 12 ( address_RAM [11:0] $end
$var wire 4 ) accu [3:0] $end
$var wire 12 * PC [11:0] $end
$var wire 4 + FF_out [3:0] $end
$var reg 1 , clock $end
$var reg 4 - pushbuttons [3:0] $end
$var reg 1 . reset $end
$var integer 32 / nota [31:0] $end
$scope module uPmodule $end
$var wire 1 , clock $end
$var wire 4 0 data_bus [3:0] $end
$var wire 4 1 pushbuttons [3:0] $end
$var wire 1 . reset $end
$var wire 1 2 zero $end
$var wire 1 " z_flag $end
$var wire 1 3 weRAM $end
$var wire 8 4 program_byte [7:0] $end
$var wire 1 $ phase $end
$var wire 4 5 oprnd [3:0] $end
$var wire 1 6 oeOprnd $end
$var wire 1 7 oeIN $end
$var wire 1 8 oeALU $end
$var wire 1 9 loadPC $end
$var wire 1 : loadOut $end
$var wire 1 ; loadFlags $end
$var wire 1 < loadA $end
$var wire 4 = instr [3:0] $end
$var wire 1 > incPC $end
$var wire 1 ? csRAM $end
$var wire 1 @ carry $end
$var wire 1 ' c_flag $end
$var wire 4 A aluOutput [3:0] $end
$var wire 12 B address_RAM [11:0] $end
$var wire 4 C accu [3:0] $end
$var wire 3 D S [2:0] $end
$var wire 12 E PC [11:0] $end
$var wire 4 F FF_out [3:0] $end
$scope module ALUbuffer $end
$var wire 4 G Y [3:0] $end
$var wire 1 8 enabled $end
$var wire 4 H A [3:0] $end
$upscope $end
$scope module ALUmodule $end
$var wire 4 I B [3:0] $end
$var wire 3 J F [2:0] $end
$var wire 1 2 Zero $end
$var wire 4 K S_out [3:0] $end
$var wire 1 @ C $end
$var wire 4 L A [3:0] $end
$var reg 5 M regS [4:0] $end
$upscope $end
$scope module RAMmodule $end
$var wire 12 N address [11:0] $end
$var wire 1 ? csRAM $end
$var wire 4 O data [3:0] $end
$var wire 1 3 weRAM $end
$var reg 4 P data_out [3:0] $end
$upscope $end
$scope module accumulatorFF $end
$var wire 4 Q D [3:0] $end
$var wire 1 , clk $end
$var wire 1 < enabled $end
$var wire 1 . reset $end
$var reg 4 R Q [3:0] $end
$upscope $end
$scope module decodeModule $end
$var wire 7 S address [6:0] $end
$var wire 13 T signals [12:0] $end
$var reg 13 U signalsReg [12:0] $end
$upscope $end
$scope module fetchFF $end
$var wire 1 , clk $end
$var wire 1 V enabled $end
$var wire 1 . reset $end
$var wire 8 W D [7:0] $end
$var reg 8 X Q [7:0] $end
$upscope $end
$scope module flagsFF $end
$var wire 2 Y D [1:0] $end
$var wire 1 , clk $end
$var wire 1 ; enabled $end
$var wire 1 . reset $end
$var reg 2 Z Q [1:0] $end
$upscope $end
$scope module inputBuffer $end
$var wire 4 [ A [3:0] $end
$var wire 4 \ Y [3:0] $end
$var wire 1 7 enabled $end
$upscope $end
$scope module oprndBuffer $end
$var wire 4 ] A [3:0] $end
$var wire 4 ^ Y [3:0] $end
$var wire 1 6 enabled $end
$upscope $end
$scope module outputsFF $end
$var wire 4 _ D [3:0] $end
$var wire 1 , clk $end
$var wire 1 : enabled $end
$var wire 1 . reset $end
$var reg 4 ` Q [3:0] $end
$upscope $end
$scope module phaseFF $end
$var wire 1 , clk $end
$var wire 1 . reset $end
$var reg 1 $ Q $end
$upscope $end
$scope module programCounter $end
$var wire 1 , clk $end
$var wire 1 > enabled $end
$var wire 1 9 load $end
$var wire 12 a loadData [11:0] $end
$var wire 1 . reset $end
$var reg 12 b outValue [11:0] $end
$upscope $end
$scope module programROM $end
$var wire 12 c address [11:0] $end
$var wire 8 d data [7:0] $end
$upscope $end
$upscope $end
$upscope $end
$enddefinitions $end
#0
$dumpvars
bx d
bx c
bx b
bx a
bx `
bx _
bx ^
bx ]
bx \
b110 [
bx Z
bx Y
bx X
bx W
xV
bx U
bx T
bx S
bx R
bx Q
bx P
bx O
bx N
bx M
bx L
bx K
bx J
bx I
bx H
bx G
bx F
bx E
bx D
bx C
bx B
bx A
x@
x?
x>
bx =
x<
x;
x:
x9
x8
x7
x6
bx 5
bx 4
x3
x2
b110 1
bx 0
b0 /
0.
b110 -
0,
bx +
bx *
bx )
bx (
x'
bx &
bx %
x$
bx #
x"
bx !
$end
#2
b0 !
b0 0
b0 G
b0 I
b0 O
b0 \
b0 ^
b0 _
0:
06
07
18
03
0?
b0 D
b0 J
0;
0<
09
1>
b1000000001000 T
b1000000001000 U
12
b0 A
b0 H
b0 K
b0 Q
b1 Y
0@
b0 %
b0 5
b0 ]
b0 &
b0 =
0"
0'
1V
b0 M
b1001111 (
b1001111 B
b1001111 N
b1001111 a
b1001111 #
b1001111 4
b1001111 W
b1001111 d
b0 *
b0 E
b0 b
b0 c
b0 X
b0 Z
b0 S
0$
b0 )
b0 C
b0 L
b0 R
b0 +
b0 F
b0 `
1.
#3
0.
#5
b0 Y
02
b1111 A
b1111 H
b1111 K
b1111 Q
b1111 M
b1111 !
b1111 0
b1111 G
b1111 I
b1111 O
b1111 \
b1111 ^
b1111 _
16
08
b10 D
b10 J
1;
1<
0>
b11010000010 T
b11010000010 U
0V
b1111 %
b1111 5
b1111 ]
b100 &
b100 =
b100001 S
1$
b1001111 X
b111101000011 (
b111101000011 B
b111101000011 N
b111101000011 a
b1000011 #
b1000011 4
b1000011 W
b1000011 d
b1 *
b1 E
b1 b
b1 c
1,
#10
0,
#15
06
18
b0 D
b0 J
0;
0<
1>
b1000000001000 T
b1000000001000 U
1V
b100000 S
0$
b1111 )
b1111 C
b1111 L
b1111 R
1,
#20
0,
#25
b11 A
b11 H
b11 K
b11 Q
b11 M
b11 !
b11 0
b11 G
b11 I
b11 O
b11 \
b11 ^
b11 _
16
08
b10 D
b10 J
1;
1<
0>
b11010000010 T
b11010000010 U
0V
b11 %
b11 5
b11 ]
b100001 S
1$
b1000011 X
b1111000001 (
b1111000001 B
b1111000001 N
b1111000001 a
b11000001 #
b11000001 4
b11000001 W
b11000001 d
b10 *
b10 E
b10 b
b10 c
1,
#30
0,
#35
06
18
b0 D
b0 J
0;
0<
1>
b1000000001000 T
b1000000001000 U
1V
b100000 S
0$
b11 )
b11 C
b11 L
b11 R
1,
#40
0,
#45
19
0>
b100000001000 T
b100000001000 U
0V
b1 %
b1 5
b1 ]
b1100 &
b1100 =
b1100001 S
1$
b11000001 X
b100100011 (
b100100011 B
b100100011 N
b100100011 a
b100011 #
b100011 4
b100011 W
b100011 d
b11 *
b11 E
b11 b
b11 c
1,
#50
0,
#55
09
1>
b1000000001000 T
b1000000001000 U
1V
b110100001 (
b110100001 B
b110100001 N
b110100001 a
b10100001 #
b10100001 4
b10100001 W
b10100001 d
b100100011 *
b100100011 E
b100100011 b
b100100011 c
b1100000 S
0$
1,
#60
0,
#65
b100 A
b100 H
b100 K
b100 Q
b1 !
b1 0
b1 G
b1 I
b1 O
b1 \
b1 ^
b1 _
b100 M
16
08
b11 D
b11 J
1;
1<
0>
b11011000010 T
b11011000010 U
0V
b1010 &
b1010 =
b1010001 S
1$
b10100001 X
b111011010 (
b111011010 B
b111011010 N
b111011010 a
b11011010 #
b11011010 4
b11011010 W
b11011010 d
b100100100 *
b100100100 E
b100100100 b
b100100100 c
1,
#70
0,
#75
b100 !
b100 0
b100 G
b100 I
b100 O
b100 \
b100 ^
b100 _
06
18
b0 D
b0 J
0;
0<
1>
b1000000001000 T
b1000000001000 U
b100 A
b100 H
b100 K
b100 Q
1V
b100 M
b1010000 S
0$
b100 )
b100 C
b100 L
b100 R
1,
#80
0,
#84
b101 /
#85
1:
0>
b1001 T
b1001 U
0V
b1010 %
b1010 5
b1010 ]
b1101 &
b1101 =
b1101001 S
1$
b11011010 X
b101001011111 (
b101001011111 B
b101001011111 N
b101001011111 a
b1011111 #
b1011111 4
b1011111 W
b1011111 d
b100100101 *
b100100101 E
b100100101 b
b100100101 c
1,
#90
0,
#95
0:
1>
b1000000001000 T
b1000000001000 U
1V
b1101000 S
0$
b100 +
b100 F
b100 `
1,
#100
0,
#105
b110 A
b110 H
b110 K
b110 Q
b110 M
b110 !
b110 0
b110 G
b110 I
b110 O
b110 \
b110 ^
b110 _
17
08
b10 D
b10 J
1;
1<
0>
b11010000100 T
b11010000100 U
0V
b1111 %
b1111 5
b1111 ]
b101 &
b101 =
b101001 S
1$
b1011111 X
b111101110010 (
b111101110010 B
b111101110010 N
b111101110010 a
b1110010 #
b1110010 4
b1110010 W
b1110010 d
b100100110 *
b100100110 E
b100100110 b
b100100110 c
1,
#110
0,
#115
07
18
b0 D
b0 J
0;
0<
1>
b1000000001000 T
b1000000001000 U
1V
b101000 S
0$
b110 )
b110 C
b110 L
b110 R
1,
#120
0,
#125
13
1?
b1000000111000 T
b1000000111000 U
0V
b10 %
b10 5
b10 ]
b111 &
b111 =
b111001 S
1$
b1110010 X
b1000110100 (
b1000110100 B
b1000110100 N
b1000110100 a
b110100 #
b110100 4
b110100 W
b110100 d
b100100111 *
b100100111 E
b100100111 b
b100100111 c
1,
#130
0,
#135
03
0?
b1000000001000 T
b1000000001000 U
1V
b1001000001 (
b1001000001 B
b1001000001 N
b1001000001 a
b1000001 #
b1000001 4
b1000001 W
b1000001 d
b100101000 *
b100101000 E
b100101000 b
b100101000 c
b111000 S
0$
1,
#140
0,
#145
b1 A
b1 H
b1 K
b1 Q
b1 M
b1 !
b1 0
b1 G
b1 I
b1 O
b1 \
b1 ^
b1 _
16
08
b10 D
b10 J
1;
1<
0>
b11010000010 T
b11010000010 U
0V
b1 %
b1 5
b1 ]
b100 &
b100 =
b100001 S
1$
b1000001 X
b110110010 (
b110110010 B
b110110010 N
b110110010 a
b10110010 #
b10110010 4
b10110010 W
b10110010 d
b100101001 *
b100101001 E
b100101001 b
b100101001 c
1,
#150
0,
#155
06
18
b0 D
b0 J
0;
0<
1>
b1000000001000 T
b1000000001000 U
1V
b100000 S
0$
b1 )
b1 C
b1 L
b1 R
1,
#160
0,
#165
b0 Y
02
b111 A
b111 H
b111 K
b111 Q
b110 !
b110 0
b110 G
b110 I
b110 O
b110 \
b110 ^
b110 _
b110 P
b111 M
08
1?
b11 D
b11 J
1;
1<
b1011011100000 T
b1011011100000 U
0V
b10 %
b10 5
b10 ]
b1011 &
b1011 =
b1011001 S
1$
b10110010 X
b1000110100 (
b1000110100 B
b1000110100 N
b1000110100 a
b110100 #
b110100 4
b110100 W
b110100 d
b100101010 *
b100101010 E
b100101010 b
b100101010 c
1,
#170
0,
#175
18
0?
b0 D
b0 J
0;
0<
b1000000001000 T
b1000000001000 U
02
b0 Y
0@
b111 !
b111 0
b111 G
b111 I
b111 O
b111 \
b111 ^
b111 _
b111 A
b111 H
b111 K
b111 Q
bx P
1V
b111 M
b1000101000 (
b1000101000 B
b1000101000 N
b1000101000 a
b101000 #
b101000 4
b101000 W
b101000 d
b100101011 *
b100101011 E
b100101011 b
b100101011 c
b1011000 S
0$
b111 )
b111 C
b111 L
b111 R
1,
#180
0,
#185
b10 Y
1@
b1111 A
b1111 H
b1111 K
b1111 Q
b1000 !
b1000 0
b1000 G
b1000 I
b1000 O
b1000 \
b1000 ^
b1000 _
b11111 M
16
08
b1 D
b1 J
1;
0>
b1001000010 T
b1001000010 U
0V
b1000 %
b1000 5
b1000 ]
b10 &
b10 =
b10001 S
1$
b101000 X
b100000010000 (
b100000010000 B
b100000010000 N
b100000010000 a
b10000 #
b10000 4
b10000 W
b10000 d
b100101100 *
b100101100 E
b100101100 b
b100101100 c
1,
#190
0,
#195
b111 A
b111 H
b111 K
b111 Q
b0 Y
0@
b111 !
b111 0
b111 G
b111 I
b111 O
b111 \
b111 ^
b111 _
b111 M
06
18
b0 D
b0 J
0;
1>
b1000000001000 T
b1000000001000 U
1'
1V
b10 Z
b10100 S
0$
1,
#200
0,
#205
0V
b0 %
b0 5
b0 ]
b1 &
b1 =
b1101 S
1$
b10000 X
b0 (
b0 B
b0 N
b0 a
b0 #
b0 4
b0 W
b0 d
b100101101 *
b100101101 E
b100101101 b
b100101101 c
1,
#210
0,
#215
1V
b1000000 (
b1000000 B
b1000000 N
b1000000 a
b1000000 #
b1000000 4
b1000000 W
b1000000 d
b100101110 *
b100101110 E
b100101110 b
b100101110 c
b1100 S
0$
1,
#220
0,
#225
b1 Y
12
b0 A
b0 H
b0 K
b0 Q
b0 M
b0 !
b0 0
b0 G
b0 I
b0 O
b0 \
b0 ^
b0 _
16
08
b10 D
b10 J
1;
1<
0>
b11010000010 T
b11010000010 U
0V
b100 &
b100 =
b100101 S
1$
b1000000 X
b10000000 (
b10000000 B
b10000000 N
b10000000 a
b10000000 #
b10000000 4
b10000000 W
b10000000 d
b100101111 *
b100101111 E
b100101111 b
b100101111 c
1,
#230
0,
#235
06
18
b0 D
b0 J
0;
0<
1>
b1000000001000 T
b1000000001000 U
1"
0'
1V
b1 Z
b100010 S
0$
b0 )
b0 C
b0 L
b0 R
1,
#240
0,
#245
19
0>
b100000001000 T
b100000001000 U
0V
b1000 &
b1000 =
b1000011 S
1$
b10000000 X
b0 (
b0 B
b0 N
b0 a
b0 #
b0 4
b0 W
b0 d
b100110000 *
b100110000 E
b100110000 b
b100110000 c
1,
#250
0,
#255
09
1>
b1000000001000 T
b1000000001000 U
1V
b1001111 (
b1001111 B
b1001111 N
b1001111 a
b1001111 #
b1001111 4
b1001111 W
b1001111 d
b0 *
b0 E
b0 b
b0 c
b1000010 S
0$
1,
#260
0,
#265
b0 Y
02
b1111 A
b1111 H
b1111 K
b1111 Q
b1111 M
b1111 !
b1111 0
b1111 G
b1111 I
b1111 O
b1111 \
b1111 ^
b1111 _
16
08
b10 D
b10 J
1;
1<
0>
b11010000010 T
b11010000010 U
0V
b1111 %
b1111 5
b1111 ]
b100 &
b100 =
b100011 S
1$
b1001111 X
b111101000011 (
b111101000011 B
b111101000011 N
b111101000011 a
b1000011 #
b1000011 4
b1000011 W
b1000011 d
b1 *
b1 E
b1 b
b1 c
1,
#270
0,
#275
06
18
b0 D
b0 J
0;
0<
1>
b1000000001000 T
b1000000001000 U
0"
1V
b0 Z
b100000 S
0$
b1111 )
b1111 C
b1111 L
b1111 R
1,
#280
0,
#285
b11 A
b11 H
b11 K
b11 Q
b11 M
b11 !
b11 0
b11 G
b11 I
b11 O
b11 \
b11 ^
b11 _
16
08
b10 D
b10 J
1;
1<
0>
b11010000010 T
b11010000010 U
0V
b11 %
b11 5
b11 ]
b100001 S
1$
b1000011 X
b1111000001 (
b1111000001 B
b1111000001 N
b1111000001 a
b11000001 #
b11000001 4
b11000001 W
b11000001 d
b10 *
b10 E
b10 b
b10 c
1,
#290
0,
#295
06
18
b0 D
b0 J
0;
0<
1>
b1000000001000 T
b1000000001000 U
1V
b100000 S
0$
b11 )
b11 C
b11 L
b11 R
1,
#300
0,
#305
19
0>
b100000001000 T
b100000001000 U
0V
b1 %
b1 5
b1 ]
b1100 &
b1100 =
b1100001 S
1$
b11000001 X
b100100011 (
b100100011 B
b100100011 N
b100100011 a
b100011 #
b100011 4
b100011 W
b100011 d
b11 *
b11 E
b11 b
b11 c
1,
#310
0,
#315
09
1>
b1000000001000 T
b1000000001000 U
1V
b110100001 (
b110100001 B
b110100001 N
b110100001 a
b10100001 #
b10100001 4
b10100001 W
b10100001 d
b100100011 *
b100100011 E
b100100011 b
b100100011 c
b1100000 S
0$
1,
#320
0,
#325
b100 A
b100 H
b100 K
b100 Q
b1 !
b1 0
b1 G
b1 I
b1 O
b1 \
b1 ^
b1 _
b100 M
16
08
b11 D
b11 J
1;
1<
0>
b11011000010 T
b11011000010 U
0V
b1010 &
b1010 =
b1010001 S
1$
b10100001 X
b111011010 (
b111011010 B
b111011010 N
b111011010 a
b11011010 #
b11011010 4
b11011010 W
b11011010 d
b100100100 *
b100100100 E
b100100100 b
b100100100 c
1,
#330
0,
#335
b100 !
b100 0
b100 G
b100 I
b100 O
b100 \
b100 ^
b100 _
06
18
b0 D
b0 J
0;
0<
1>
b1000000001000 T
b1000000001000 U
b100 A
b100 H
b100 K
b100 Q
1V
b100 M
b1010000 S
0$
b100 )
b100 C
b100 L
b100 R
1,
#340
0,
#345
1:
0>
b1001 T
b1001 U
0V
b1010 %
b1010 5
b1010 ]
b1101 &
b1101 =
b1101001 S
1$
b11011010 X
b101001011111 (
b101001011111 B
b101001011111 N
b101001011111 a
b1011111 #
b1011111 4
b1011111 W
b1011111 d
b100100101 *
b100100101 E
b100100101 b
b100100101 c
1,
#350
0,
#355
0:
1>
b1000000001000 T
b1000000001000 U
1V
b1101000 S
0$
1,
#360
0,
#365
b110 A
b110 H
b110 K
b110 Q
b110 M
b110 !
b110 0
b110 G
b110 I
b110 O
b110 \
b110 ^
b110 _
17
08
b10 D
b10 J
1;
1<
0>
b11010000100 T
b11010000100 U
0V
b1111 %
b1111 5
b1111 ]
b101 &
b101 =
b101001 S
1$
b1011111 X
b111101110010 (
b111101110010 B
b111101110010 N
b111101110010 a
b1110010 #
b1110010 4
b1110010 W
b1110010 d
b100100110 *
b100100110 E
b100100110 b
b100100110 c
1,
#370
0,
#375
07
18
b0 D
b0 J
0;
0<
1>
b1000000001000 T
b1000000001000 U
1V
b101000 S
0$
b110 )
b110 C
b110 L
b110 R
1,
#380
0,
#385
13
1?
b1000000111000 T
b1000000111000 U
0V
b10 %
b10 5
b10 ]
b111 &
b111 =
b111001 S
1$
b1110010 X
b1000110100 (
b1000110100 B
b1000110100 N
b1000110100 a
b110100 #
b110100 4
b110100 W
b110100 d
b100100111 *
b100100111 E
b100100111 b
b100100111 c
1,
#390
0,
#395
03
0?
b1000000001000 T
b1000000001000 U
1V
b1001000001 (
b1001000001 B
b1001000001 N
b1001000001 a
b1000001 #
b1000001 4
b1000001 W
b1000001 d
b100101000 *
b100101000 E
b100101000 b
b100101000 c
b111000 S
0$
1,
#400
0,
#405
b1 A
b1 H
b1 K
b1 Q
b1 M
b1 !
b1 0
b1 G
b1 I
b1 O
b1 \
b1 ^
b1 _
16
08
b10 D
b10 J
1;
1<
0>
b11010000010 T
b11010000010 U
0V
b1 %
b1 5
b1 ]
b100 &
b100 =
b100001 S
1$
b1000001 X
b110110010 (
b110110010 B
b110110010 N
b110110010 a
b10110010 #
b10110010 4
b10110010 W
b10110010 d
b100101001 *
b100101001 E
b100101001 b
b100101001 c
1,
#410
0,
#415
06
18
b0 D
b0 J
0;
0<
1>
b1000000001000 T
b1000000001000 U
1V
b100000 S
0$
b1 )
b1 C
b1 L
b1 R
1,
#420
0,
#425
b0 Y
02
b111 A
b111 H
b111 K
b111 Q
b110 !
b110 0
b110 G
b110 I
b110 O
b110 \
b110 ^
b110 _
b110 P
b111 M
08
1?
b11 D
b11 J
1;
1<
b1011011100000 T
b1011011100000 U
0V
b10 %
b10 5
b10 ]
b1011 &
b1011 =
b1011001 S
1$
b10110010 X
b1000110100 (
b1000110100 B
b1000110100 N
b1000110100 a
b110100 #
b110100 4
b110100 W
b110100 d
b100101010 *
b100101010 E
b100101010 b
b100101010 c
1,
#430
0,
#435
18
0?
b0 D
b0 J
0;
0<
b1000000001000 T
b1000000001000 U
02
b0 Y
0@
b111 !
b111 0
b111 G
b111 I
b111 O
b111 \
b111 ^
b111 _
b111 A
b111 H
b111 K
b111 Q
bx P
1V
b111 M
b1000101000 (
b1000101000 B
b1000101000 N
b1000101000 a
b101000 #
b101000 4
b101000 W
b101000 d
b100101011 *
b100101011 E
b100101011 b
b100101011 c
b1011000 S
0$
b111 )
b111 C
b111 L
b111 R
1,
#440
0,
#445
b10 Y
1@
b1111 A
b1111 H
b1111 K
b1111 Q
b1000 !
b1000 0
b1000 G
b1000 I
b1000 O
b1000 \
b1000 ^
b1000 _
b11111 M
16
08
b1 D
b1 J
1;
0>
b1001000010 T
b1001000010 U
0V
b1000 %
b1000 5
b1000 ]
b10 &
b10 =
b10001 S
1$
b101000 X
b100000010000 (
b100000010000 B
b100000010000 N
b100000010000 a
b10000 #
b10000 4
b10000 W
b10000 d
b100101100 *
b100101100 E
b100101100 b
b100101100 c
1,
#450
0,
#455
b111 A
b111 H
b111 K
b111 Q
b0 Y
0@
b111 !
b111 0
b111 G
b111 I
b111 O
b111 \
b111 ^
b111 _
b111 M
06
18
b0 D
b0 J
0;
1>
b1000000001000 T
b1000000001000 U
1'
1V
b10 Z
b10100 S
0$
1,
#460
0,
#465
0V
b0 %
b0 5
b0 ]
b1 &
b1 =
b1101 S
1$
b10000 X
b0 (
b0 B
b0 N
b0 a
b0 #
b0 4
b0 W
b0 d
b100101101 *
b100101101 E
b100101101 b
b100101101 c
1,
#470
0,
#475
1V
b1000000 (
b1000000 B
b1000000 N
b1000000 a
b1000000 #
b1000000 4
b1000000 W
b1000000 d
b100101110 *
b100101110 E
b100101110 b
b100101110 c
b1100 S
0$
1,
#480
0,
#485
b1 Y
12
b0 A
b0 H
b0 K
b0 Q
b0 M
b0 !
b0 0
b0 G
b0 I
b0 O
b0 \
b0 ^
b0 _
16
08
b10 D
b10 J
1;
1<
0>
b11010000010 T
b11010000010 U
0V
b100 &
b100 =
b100101 S
1$
b1000000 X
b10000000 (
b10000000 B
b10000000 N
b10000000 a
b10000000 #
b10000000 4
b10000000 W
b10000000 d
b100101111 *
b100101111 E
b100101111 b
b100101111 c
1,
#490
0,
#495
06
18
b0 D
b0 J
0;
0<
1>
b1000000001000 T
b1000000001000 U
1"
0'
1V
b1 Z
b100010 S
0$
b0 )
b0 C
b0 L
b0 R
1,
