proyecto_02_uP/uP_tb.vcd
$date
	Wed Nov 18 09:11:34 2020
$end
$version
	Icarus Verilog
$end
$timescale
	1ps
$end
$scope module testbench $end
$var wire 4 ! data_bus [3:0] $end
$var wire 1 " z_flag $end
$var wire 8 # program_byte [7:0] $end
$var wire 1 $ phase $end
$var wire 4 % oprnd [3:0] $end
$var wire 4 & instr [3:0] $end
$var wire 1 ' c_flag $end
$var wire 12 ( address_RAM [11:0] $end
$var wire 4 ) accu [3:0] $end
$var wire 12 * PC [11:0] $end
$var wire 4 + FF_out [3:0] $end
$var reg 1 , clock $end
$var reg 4 - pushbuttons [3:0] $end
$var reg 1 . reset $end
$var integer 32 / nota [31:0] $end
$scope module uPmodule $end
$var wire 1 , clock $end
$var wire 4 0 data_bus [3:0] $end
$var wire 4 1 pushbuttons [3:0] $end
$var wire 1 . reset $end
$var wire 1 2 zero $end
$var wire 1 " z_flag $end
$var wire 1 3 weRAM $end
$var wire 8 4 program_byte [7:0] $end
$var wire 1 $ phase $end
$var wire 4 5 oprnd [3:0] $end
$var wire 1 6 oeOprnd $end
$var wire 1 7 oeIN $end
$var wire 1 8 oeALU $end
$var wire 1 9 loadPC $end
$var wire 1 : loadOut $end
$var wire 1 ; loadFlags $end
$var wire 1 < loadA $end
$var wire 4 = instr [3:0] $end
$var wire 1 > incPC $end
$var wire 1 ? csRAM $end
$var wire 1 @ carry $end
$var wire 1 ' c_flag $end
$var wire 4 A aluOutput [3:0] $end
$var wire 12 B address_RAM [11:0] $end
$var wire 4 C accu [3:0] $end
$var wire 3 D S [2:0] $end
$var wire 12 E PC [11:0] $end
$var wire 4 F FF_out [3:0] $end
$scope module ALUbuffer $end
$var wire 4 G Y [3:0] $end
$var wire 1 8 enabled $end
$var wire 4 H A [3:0] $end
$upscope $end
$scope module ALUmodule $end
$var wire 4 I B [3:0] $end
$var wire 3 J F [2:0] $end
$var wire 1 2 Zero $end
$var wire 4 K S_out [3:0] $end
$var wire 1 @ C $end
$var wire 4 L A [3:0] $end
$var reg 5 M regS [4:0] $end
$upscope $end
$scope module RAMmodule $end
$var wire 12 N address [11:0] $end
$var wire 1 ? csRAM $end
$var wire 4 O data [3:0] $end
$var wire 1 3 weRAM $end
$var reg 4 P data_out [3:0] $end
$upscope $end
$scope module accumulatorFF $end
$var wire 4 Q D [3:0] $end
$var wire 1 , clk $end
$var wire 1 < enabled $end
$var wire 1 . reset $end
$var reg 4 R Q [3:0] $end
$upscope $end
$scope module decodeModule $end
$var wire 7 S address [6:0] $end
$var wire 13 T signals [12:0] $end
$var reg 13 U signalsReg [12:0] $end
$upscope $end
$scope module fetchFF $end
$var wire 1 , clk $end
$var wire 1 V enabled $end
$var wire 1 . reset $end
$var wire 8 W D [7:0] $end
$var reg 8 X Q [7:0] $end
$upscope $end
$scope module flagsFF $end
$var wire 2 Y D [1:0] $end
$var wire 1 , clk $end
$var wire 1 ; enabled $end
$var wire 1 . reset $end
$var reg 2 Z Q [1:0] $end
$upscope $end
$scope module inputBuffer $end
$var wire 4 [ A [3:0] $end
$var wire 4 \ Y [3:0] $end
$var wire 1 7 enabled $end
$upscope $end
$scope module oprndBuffer $end
$var wire 4 ] A [3:0] $end
$var wire 4 ^ Y [3:0] $end
$var wire 1 6 enabled $end
$upscope $end
$scope module outputsFF $end
$var wire 4 _ D [3:0] $end
$var wire 1 , clk $end
$var wire 1 : enabled $end
$var wire 1 . reset $end
$var reg 4 ` Q [3:0] $end
$upscope $end
$scope module phaseFF $end
$var wire 1 , clk $end
$var wire 1 . reset $end
$var reg 1 $ Q $end
$upscope $end
$scope module programCounter $end
$var wire 1 , clk $end
$var wire 1 > enabled $end
$var wire 1 9 load $end
$var wire 12 a loadData [11:0] $end
$var wire 1 . reset $end
$var reg 12 b outValue [11:0] $end
$upscope $end
$scope module programROM $end
$var wire 12 c address [11:0] $end
$var wire 8 d data [7:0] $end
$upscope $end
$upscope $end
$upscope $end
$enddefinitions $end
#0
$dumpvars
bx d
bx c
bx b
bx a
bx `
bx _
bx ^
bx ]
bx \
b110 [
bx Z
bx Y
bx X
bx W
xV
bx U
bx T
bx S
bx R
bx Q
bx P
bx O
bx N
bx M
bx L
bx K
bx J
bx I
bx H
bx G
bx F
bx E
bx D
bx C
bx B
bx A
x@
x?
x>
bx =
x<
x;
x:
x9
x8
x7
x6
bx 5
bx 4
x3
x2
b110 1
bx 0
b0 /
0.
b110 -
0,
bx +
bx *
bx )
bx (
x'
bx &
bx %
x$
bx #
x"
bx !
$end
#2
b0 !
b0 0
b0 G
b0 I
b0 O
b0 \
b0 ^
b0 _
0:
06
07
18
03
0?
b0 D
b0 J
0;
0<
09
1>
b1000000001000 T
b1000000001000 U
12
b0 A
b0 H
b0 K
b0 Q
b1 Y
0@
b0 %
b0 5
b0 ]
b0 &
b0 =
0"
0'
1V
b0 M
b1000100 (
b1000100 B
b1000100 N
b1000100 a
b1000100 #
b1000100 4
b1000100 W
b1000100 d
b0 *
b0 E
b0 b
b0 c
b0 X
b0 Z
b0 S
0$
b0 )
b0 C
b0 L
b0 R
b0 +
b0 F
b0 `
1.
#3
0.
#5
b0 Y
02
b100 A
b100 H
b100 K
b100 Q
b100 M
b100 !
b100 0
b100 G
b100 I
b100 O
b100 \
b100 ^
b100 _
16
08
b10 D
b10 J
1;
1<
0>
b11010000010 T
b11010000010 U
0V
b100 %
b100 5
b100 ]
b100 &
b100 =
b100001 S
1$
b1000100 X
b10011011111 (
b10011011111 B
b10011011111 N
b10011011111 a
b11011111 #
b11011111 4
b11011111 W
b11011111 d
b1 *
b1 E
b1 b
b1 c
1,
#10
0,
#15
06
18
b0 D
b0 J
0;
0<
1>
b1000000001000 T
b1000000001000 U
1V
b100000 S
0$
b100 )
b100 C
b100 L
b100 R
1,
#16
b1000110 /
#20
0,
#25
1:
0>
b1001 T
b1001 U
0V
b1111 %
b1111 5
b1111 ]
b1101 &
b1101 =
b1101001 S
1$
b11011111 X
b111101010001 (
b111101010001 B
b111101010001 N
b111101010001 a
b1010001 #
b1010001 4
b1010001 W
b1010001 d
b10 *
b10 E
b10 b
b10 c
1,
#30
0,
#35
0:
1>
b1000000001000 T
b1000000001000 U
1V
b1101000 S
0$
b100 +
b100 F
b100 `
1,
#36
b10001000 /
#40
0,
#45
b110 A
b110 H
b110 K
b110 Q
b110 M
b110 !
b110 0
b110 G
b110 I
b110 O
b110 \
b110 ^
b110 _
17
08
b10 D
b10 J
1;
1<
0>
b11010000100 T
b11010000100 U
0V
b1 %
b1 5
b1 ]
b101 &
b101 =
b101001 S
1$
b1010001 X
b101000000 (
b101000000 B
b101000000 N
b101000000 a
b1000000 #
b1000000 4
b1000000 W
b1000000 d
b11 *
b11 E
b11 b
b11 c
1,
#50
0,
#55
07
18
b0 D
b0 J
0;
0<
1>
b1000000001000 T
b1000000001000 U
1V
b101000 S
0$
b110 )
b110 C
b110 L
b110 R
1,
#56
b11001010 /
#60
0,
#65
b1 Y
12
b0 A
b0 H
b0 K
b0 Q
b0 M
b0 !
b0 0
b0 G
b0 I
b0 O
b0 \
b0 ^
b0 _
16
08
b10 D
b10 J
1;
1<
0>
b11010000010 T
b11010000010 U
0V
b0 %
b0 5
b0 ]
b100 &
b100 =
b100001 S
1$
b1000000 X
b1001111 (
b1001111 B
b1001111 N
b1001111 a
b1001111 #
b1001111 4
b1001111 W
b1001111 d
b100 *
b100 E
b100 b
b100 c
1,
#70
0,
#75
06
18
b0 D
b0 J
0;
0<
1>
b1000000001000 T
b1000000001000 U
1"
1V
b1 Z
b100010 S
0$
b0 )
b0 C
b0 L
b0 R
1,
#80
0,
#85
b0 Y
02
b1111 A
b1111 H
b1111 K
b1111 Q
b1111 M
b1111 !
b1111 0
b1111 G
b1111 I
b1111 O
b1111 \
b1111 ^
b1111 _
16
08
b10 D
b10 J
1;
1<
0>
b11010000010 T
b11010000010 U
0V
b1111 %
b1111 5
b1111 ]
b100011 S
1$
b1001111 X
b111110101010 (
b111110101010 B
b111110101010 N
b111110101010 a
b10101010 #
b10101010 4
b10101010 W
b10101010 d
b101 *
b101 E
b101 b
b101 c
1,
#90
0,
#95
06
18
b0 D
b0 J
0;
0<
1>
b1000000001000 T
b1000000001000 U
0"
1V
b0 Z
b100000 S
0$
b1111 )
b1111 C
b1111 L
b1111 R
1,
#100
0,
#105
b1001 A
b1001 H
b1001 K
b1001 Q
b10 Y
1@
b1010 !
b1010 0
b1010 G
b1010 I
b1010 O
b1010 \
b1010 ^
b1010 _
b11001 M
16
08
b11 D
b11 J
1;
1<
0>
b11011000010 T
b11011000010 U
0V
b1010 %
b1010 5
b1010 ]
b1010 &
b1010 =
b1010001 S
1$
b10101010 X
b101000101000 (
b101000101000 B
b101000101000 N
b101000101000 a
b101000 #
b101000 4
b101000 W
b101000 d
b110 *
b110 E
b110 b
b110 c
1,
#110
0,
#115
b0 Y
0@
b1001 !
b1001 0
b1001 G
b1001 I
b1001 O
b1001 \
b1001 ^
b1001 _
06
18
b0 D
b0 J
0;
0<
1>
b1000000001000 T
b1000000001000 U
b1001 A
b1001 H
b1001 K
b1001 Q
1'
1V
b1001 M
b10 Z
b1010100 S
0$
b1001 )
b1001 C
b1001 L
b1001 R
1,
#116
b11101011 /
#120
0,
#125
b1 A
b1 H
b1 K
b1 Q
b1000 !
b1000 0
b1000 G
b1000 I
b1000 O
b1000 \
b1000 ^
b1000 _
b1 M
16
08
b1 D
b1 J
1;
0>
b1001000010 T
b1001000010 U
0V
b1000 %
b1000 5
b1000 ]
b10 &
b10 =
b10101 S
1$
b101000 X
b100001001010 (
b100001001010 B
b100001001010 N
b100001001010 a
b1001010 #
b1001010 4
b1001010 W
b1001010 d
b111 *
b111 E
b111 b
b111 c
1,
#130
0,
#135
b1001 A
b1001 H
b1001 K
b1001 Q
b1001 !
b1001 0
b1001 G
b1001 I
b1001 O
b1001 \
b1001 ^
b1001 _
b1001 M
06
18
b0 D
b0 J
0;
1>
b1000000001000 T
b1000000001000 U
0'
1V
b0 Z
b10000 S
0$
1,
#136
b100001100 /
#140
0,
#145
b1010 A
b1010 H
b1010 K
b1010 Q
b1010 M
b1010 !
b1010 0
b1010 G
b1010 I
b1010 O
b1010 \
b1010 ^
b1010 _
16
08
b10 D
b10 J
1;
1<
0>
b11010000010 T
b11010000010 U
0V
b1010 %
b1010 5
b1010 ]
b100 &
b100 =
b100001 S
1$
b1001010 X
b101000101100 (
b101000101100 B
b101000101100 N
b101000101100 a
b101100 #
b101100 4
b101100 W
b101100 d
b1000 *
b1000 E
b1000 b
b1000 c
1,
#150
0,
#155
06
18
b0 D
b0 J
0;
0<
1>
b1000000001000 T
b1000000001000 U
1V
b100000 S
0$
b1010 )
b1010 C
b1010 L
b1010 R
1,
#160
0,
#165
b10 Y
1@
b1110 A
b1110 H
b1110 K
b1110 Q
b1100 !
b1100 0
b1100 G
b1100 I
b1100 O
b1100 \
b1100 ^
b1100 _
b11110 M
16
08
b1 D
b1 J
1;
0>
b1001000010 T
b1001000010 U
0V
b1100 %
b1100 5
b1100 ]
b10 &
b10 =
b10001 S
1$
b101100 X
b110010100001 (
b110010100001 B
b110010100001 N
b110010100001 a
b10100001 #
b10100001 4
b10100001 W
b10100001 d
b1001 *
b1001 E
b1001 b
b1001 c
1,
#170
0,
#175
b1010 A
b1010 H
b1010 K
b1010 Q
b0 Y
0@
b1010 !
b1010 0
b1010 G
b1010 I
b1010 O
b1010 \
b1010 ^
b1010 _
b1010 M
06
18
b0 D
b0 J
0;
1>
b1000000001000 T
b1000000001000 U
1'
1V
b10 Z
b10100 S
0$
1,
#176
b100101101 /
#180
0,
#185
b1011 A
b1011 H
b1011 K
b1011 Q
b0 Y
0@
b1 !
b1 0
b1 G
b1 I
b1 O
b1 \
b1 ^
b1 _
b1011 M
16
08
b11 D
b11 J
1;
1<
0>
b11011000010 T
b11011000010 U
0V
b1 %
b1 5
b1 ]
b1010 &
b1010 =
b1010101 S
1$
b10100001 X
b111101011 (
b111101011 B
b111101011 N
b111101011 a
b11101011 #
b11101011 4
b11101011 W
b11101011 d
b1010 *
b1010 E
b1010 b
b1010 c
1,
#190
0,
#195
b1011 !
b1011 0
b1011 G
b1011 I
b1011 O
b1011 \
b1011 ^
b1011 _
06
18
b0 D
b0 J
0;
0<
1>
b1000000001000 T
b1000000001000 U
b1011 A
b1011 H
b1011 K
b1011 Q
0'
1V
b1011 M
b0 Z
b1010000 S
0$
b1011 )
b1011 C
b1011 L
b1011 R
1,
#196
b101001110 /
#200
0,
#205
b100 A
b100 H
b100 K
b100 Q
b1011 !
b1011 0
b1011 G
b1011 I
b1011 O
b1011 \
b1011 ^
b1011 _
b100 M
16
08
b100 D
b100 J
1;
1<
0>
b11100000010 T
b11100000010 U
0V
b1011 %
b1011 5
b1011 ]
b1110 &
b1110 =
b1110001 S
1$
b11101011 X
b101111010000 (
b101111010000 B
b101111010000 N
b101111010000 a
b11010000 #
b11010000 4
b11010000 W
b11010000 d
b1011 *
b1011 E
b1011 b
b1011 c
1,
#210
0,
#215
b100 !
b100 0
b100 G
b100 I
b100 O
b100 \
b100 ^
b100 _
06
18
b0 D
b0 J
0;
0<
1>
b1000000001000 T
b1000000001000 U
b100 A
b100 H
b100 K
b100 Q
1V
b100 M
b1110000 S
0$
b100 )
b100 C
b100 L
b100 R
1,
#216
b110010000 /
#220
0,
#225
1:
0>
b1001 T
b1001 U
0V
b0 %
b0 5
b0 ]
b1101 &
b1101 =
b1101001 S
1$
b11010000 X
b1010000 (
b1010000 B
b1010000 N
b1010000 a
b1010000 #
b1010000 4
b1010000 W
b1010000 d
b1100 *
b1100 E
b1100 b
b1100 c
1,
#230
0,
#235
0:
1>
b1000000001000 T
b1000000001000 U
1V
b1101000 S
0$
1,
#240
0,
#245
b110 A
b110 H
b110 K
b110 Q
b110 M
b110 !
b110 0
b110 G
b110 I
b110 O
b110 \
b110 ^
b110 _
17
08
b10 D
b10 J
1;
1<
0>
b11010000100 T
b11010000100 U
0V
b101 &
b101 =
b101001 S
1$
b1010000 X
b11001010 (
b11001010 B
b11001010 N
b11001010 a
b11001010 #
b11001010 4
b11001010 W
b11001010 d
b1101 *
b1101 E
b1101 b
b1101 c
1,
#250
0,
#255
07
18
b0 D
b0 J
0;
0<
1>
b1000000001000 T
b1000000001000 U
1V
b101000 S
0$
b110 )
b110 C
b110 L
b110 R
1,
#260
0,
#265
19
0>
b100000001000 T
b100000001000 U
0V
b1010 %
b1010 5
b1010 ]
b1100 &
b1100 =
b1100001 S
1$
b11001010 X
b101000000001 (
b101000000001 B
b101000000001 N
b101000000001 a
b1 #
b1 4
b1 W
b1 d
b1110 *
b1110 E
b1110 b
b1110 c
1,
#270
0,
#275
09
1>
b1000000001000 T
b1000000001000 U
1V
b101001000001 (
b101001000001 B
b101001000001 N
b101001000001 a
b1000001 #
b1000001 4
b1000001 W
b1000001 d
b101000000001 *
b101000000001 E
b101000000001 b
b101000000001 c
b1100000 S
0$
1,
#276
b111001100 /
#280
0,
#285
b1 A
b1 H
b1 K
b1 Q
b1 M
b1 !
b1 0
b1 G
b1 I
b1 O
b1 \
b1 ^
b1 _
16
08
b10 D
b10 J
1;
1<
0>
b11010000010 T
b11010000010 U
0V
b1 %
b1 5
b1 ]
b100 &
b100 =
b100001 S
1$
b1000001 X
b100100010 (
b100100010 B
b100100010 N
b100100010 a
b100010 #
b100010 4
b100010 W
b100010 d
b101000000010 *
b101000000010 E
b101000000010 b
b101000000010 c
1,
#290
0,
#295
06
18
b0 D
b0 J
0;
0<
1>
b1000000001000 T
b1000000001000 U
1V
b100000 S
0$
b1 )
b1 C
b1 L
b1 R
1,
#300
0,
#305
02
b10 Y
1@
b1111 A
b1111 H
b1111 K
b1111 Q
b10 !
b10 0
b10 G
b10 I
b10 O
b10 \
b10 ^
b10 _
b11111 M
16
08
b1 D
b1 J
1;
0>
b1001000010 T
b1001000010 U
0V
b10 %
b10 5
b10 ]
b10 &
b10 =
b10001 S
1$
b100010 X
b1000000000 (
b1000000000 B
b1000000000 N
b1000000000 a
b0 #
b0 4
b0 W
b0 d
b101000000011 *
b101000000011 E
b101000000011 b
b101000000011 c
1,
#310
0,
#315
b1 A
b1 H
b1 K
b1 Q
b0 Y
0@
b1 !
b1 0
b1 G
b1 I
b1 O
b1 \
b1 ^
b1 _
b1 M
06
18
b0 D
b0 J
0;
1>
b1000000001000 T
b1000000001000 U
1'
1V
b10 Z
b10100 S
0$
1,
#320
0,
#325
19
0>
b100000001000 T
b100000001000 U
0V
b0 %
b0 5
b0 ]
b0 &
b0 =
b101 S
1$
b0 X
b1010000 (
b1010000 B
b1010000 N
b1010000 a
b1010000 #
b1010000 4
b1010000 W
b1010000 d
b101000000100 *
b101000000100 E
b101000000100 b
b101000000100 c
1,
#330
0,
#335
09
1>
b1000000001000 T
b1000000001000 U
1V
b1001111 (
b1001111 B
b1001111 N
b1001111 a
b1001111 #
b1001111 4
b1001111 W
b1001111 d
b1010000 *
b1010000 E
b1010000 b
b1010000 c
b100 S
0$
1,
#340
0,
#345
b1111 A
b1111 H
b1111 K
b1111 Q
b1111 M
b1111 !
b1111 0
b1111 G
b1111 I
b1111 O
b1111 \
b1111 ^
b1111 _
16
08
b10 D
b10 J
1;
1<
0>
b11010000010 T
b11010000010 U
0V
b1111 %
b1111 5
b1111 ]
b100 &
b100 =
b100101 S
1$
b1001111 X
b111110100001 (
b111110100001 B
b111110100001 N
b111110100001 a
b10100001 #
b10100001 4
b10100001 W
b10100001 d
b1010001 *
b1010001 E
b1010001 b
b1010001 c
1,
#350
0,
#355
06
18
b0 D
b0 J
0;
0<
1>
b1000000001000 T
b1000000001000 U
0'
1V
b0 Z
b100000 S
0$
b1111 )
b1111 C
b1111 L
b1111 R
1,
#360
0,
#365
12
b0 A
b0 H
b0 K
b0 Q
b11 Y
1@
b1 !
b1 0
b1 G
b1 I
b1 O
b1 \
b1 ^
b1 _
b10000 M
16
08
b11 D
b11 J
1;
1<
0>
b11011000010 T
b11011000010 U
0V
b1 %
b1 5
b1 ]
b1010 &
b1010 =
b1010001 S
1$
b10100001 X
b110001111 (
b110001111 B
b110001111 N
b110001111 a
b10001111 #
b10001111 4
b10001111 W
b10001111 d
b1010010 *
b1010010 E
b1010010 b
b1010010 c
1,
#370
0,
#375
b0 !
b0 0
b0 G
b0 I
b0 O
b0 \
b0 ^
b0 _
06
18
b0 D
b0 J
0;
0<
1>
b1000000001000 T
b1000000001000 U
12
b0 A
b0 H
b0 K
b0 Q
b1 Y
0@
1"
1'
1V
b0 M
b11 Z
b1010110 S
0$
b0 )
b0 C
b0 L
b0 R
1,
#380
0,
#385
19
0>
b100000001000 T
b100000001000 U
0V
b1111 %
b1111 5
b1111 ]
b1000 &
b1000 =
b1000111 S
1$
b10001111 X
b111101001001 (
b111101001001 B
b111101001001 N
b111101001001 a
b1001001 #
b1001001 4
b1001001 W
b1001001 d
b1010011 *
b1010011 E
b1010011 b
b1010011 c
1,
#390
0,
#395
09
1>
b1000000001000 T
b1000000001000 U
1V
b111101000110 (
b111101000110 B
b111101000110 N
b111101000110 a
b1000110 #
b1000110 4
b1000110 W
b1000110 d
b111101001001 *
b111101001001 E
b111101001001 b
b111101001001 c
b1000110 S
0$
1,
#400
0,
#405
b0 Y
02
b110 A
b110 H
b110 K
b110 Q
b110 M
b110 !
b110 0
b110 G
b110 I
b110 O
b110 \
b110 ^
b110 _
16
08
b10 D
b10 J
1;
1<
0>
b11010000010 T
b11010000010 U
0V
b110 %
b110 5
b110 ]
b100 &
b100 =
b100111 S
1$
b1000110 X
b11000100010 (
b11000100010 B
b11000100010 N
b11000100010 a
b100010 #
b100010 4
b100010 W
b100010 d
b111101001010 *
b111101001010 E
b111101001010 b
b111101001010 c
1,
#410
0,
#415
06
18
b0 D
b0 J
0;
0<
1>
b1000000001000 T
b1000000001000 U
0"
0'
1V
b0 Z
b100000 S
0$
b110 )
b110 C
b110 L
b110 R
1,
#420
0,
#425
b0 Y
02
b100 A
b100 H
b100 K
b100 Q
b10 !
b10 0
b10 G
b10 I
b10 O
b10 \
b10 ^
b10 _
b100 M
16
08
b1 D
b1 J
1;
0>
b1001000010 T
b1001000010 U
0V
b10 %
b10 5
b10 ]
b10 &
b10 =
b10001 S
1$
b100010 X
b1000000001 (
b1000000001 B
b1000000001 N
b1000000001 a
b1 #
b1 4
b1 W
b1 d
b111101001011 *
b111101001011 E
b111101001011 b
b111101001011 c
1,
#430
0,
#435
b110 A
b110 H
b110 K
b110 Q
b110 !
b110 0
b110 G
b110 I
b110 O
b110 \
b110 ^
b110 _
b110 M
06
18
b0 D
b0 J
0;
1>
b1000000001000 T
b1000000001000 U
1V
b10000 S
0$
1,
#440
0,
#445
0V
b1 %
b1 5
b1 ]
b0 &
b0 =
b1 S
1$
b1 X
b100100011 (
b100100011 B
b100100011 N
b100100011 a
b100011 #
b100011 4
b100011 W
b100011 d
b111101001100 *
b111101001100 E
b111101001100 b
b111101001100 c
1,
#450
0,
#455
1V
b100010010 (
b100010010 B
b100010010 N
b100010010 a
b10010 #
b10010 4
b10010 W
b10010 d
b111101001101 *
b111101001101 E
b111101001101 b
b111101001101 c
b0 S
0$
1,
#460
0,
#465
19
0>
b100000001000 T
b100000001000 U
0V
b10 %
b10 5
b10 ]
b1 &
b1 =
b1001 S
1$
b10010 X
b1000100011 (
b1000100011 B
b1000100011 N
b1000100011 a
b100011 #
b100011 4
b100011 W
b100011 d
b111101001110 *
b111101001110 E
b111101001110 b
b111101001110 c
1,
#470
0,
#475
09
1>
b1000000001000 T
b1000000001000 U
1V
b1001001010 (
b1001001010 B
b1001001010 N
b1001001010 a
b1001010 #
b1001010 4
b1001010 W
b1001010 d
b1000100011 *
b1000100011 E
b1000100011 b
b1000100011 c
b1000 S
0$
1,
#480
0,
#485
b1010 A
b1010 H
b1010 K
b1010 Q
b1010 M
b1010 !
b1010 0
b1010 G
b1010 I
b1010 O
b1010 \
b1010 ^
b1010 _
16
08
b10 D
b10 J
1;
1<
0>
b11010000010 T
b11010000010 U
0V
b1010 %
b1010 5
b1010 ]
b100 &
b100 =
b100001 S
1$
b1001010 X
b1010xxxxxxxx (
b1010xxxxxxxx B
b1010xxxxxxxx N
b1010xxxxxxxx a
bx #
bx 4
bx W
bx d
b1000100100 *
b1000100100 E
b1000100100 b
b1000100100 c
1,
#490
0,
#495
06
18
b0 D
b0 J
0;
0<
1>
b1000000001000 T
b1000000001000 U
1V
b100000 S
0$
b1010 )
b1010 C
b1010 L
b1010 R
1,
