proyecto_02_uP/uP_tb.vcd
$date
	Wed Nov 18 08:25:56 2020
$end
$version
	Icarus Verilog
$end
$timescale
	1ps
$end
$scope module testbench $end
$var wire 4 ! data_bus [3:0] $end
$var wire 1 " z_flag $end
$var wire 8 # program_byte [7:0] $end
$var wire 1 $ phase $end
$var wire 4 % oprnd [3:0] $end
$var wire 4 & instr [3:0] $end
$var wire 1 ' c_flag $end
$var wire 12 ( address_RAM [11:0] $end
$var wire 4 ) accu [3:0] $end
$var wire 12 * PC [11:0] $end
$var wire 4 + FF_out [3:0] $end
$var reg 1 , clock $end
$var reg 4 - pushbuttons [3:0] $end
$var reg 1 . reset $end
$var integer 32 / nota [31:0] $end
$scope module uPmodule $end
$var wire 1 , clock $end
$var wire 4 0 data_bus [3:0] $end
$var wire 4 1 pushbuttons [3:0] $end
$var wire 1 . reset $end
$var wire 1 2 zero $end
$var wire 1 " z_flag $end
$var wire 1 3 weRAM $end
$var wire 8 4 program_byte [7:0] $end
$var wire 1 $ phase $end
$var wire 4 5 oprnd [3:0] $end
$var wire 1 6 oeOprnd $end
$var wire 1 7 oeIN $end
$var wire 1 8 oeALU $end
$var wire 1 9 loadPC $end
$var wire 1 : loadOut $end
$var wire 1 ; loadFlags $end
$var wire 1 < loadA $end
$var wire 4 = instr [3:0] $end
$var wire 1 > incPC $end
$var wire 1 ? csRAM $end
$var wire 1 @ carry $end
$var wire 1 ' c_flag $end
$var wire 4 A aluOutput [3:0] $end
$var wire 12 B address_RAM [11:0] $end
$var wire 4 C accu [3:0] $end
$var wire 3 D S [2:0] $end
$var wire 12 E PC [11:0] $end
$var wire 4 F FF_out [3:0] $end
$scope module ALUbuffer $end
$var wire 4 G Y [3:0] $end
$var wire 1 8 enabled $end
$var wire 4 H A [3:0] $end
$upscope $end
$scope module ALUmodule $end
$var wire 4 I B [3:0] $end
$var wire 3 J F [2:0] $end
$var wire 1 2 Zero $end
$var wire 4 K S_out [3:0] $end
$var wire 1 @ C $end
$var wire 4 L A [3:0] $end
$var reg 5 M regS [4:0] $end
$upscope $end
$scope module RAMmodule $end
$var wire 12 N address [11:0] $end
$var wire 1 ? csRAM $end
$var wire 4 O data [3:0] $end
$var wire 1 3 weRAM $end
$var reg 4 P data_out [3:0] $end
$upscope $end
$scope module accumulatorFF $end
$var wire 4 Q D [3:0] $end
$var wire 1 , clk $end
$var wire 1 < enabled $end
$var wire 1 . reset $end
$var reg 4 R Q [3:0] $end
$upscope $end
$scope module decodeModule $end
$var wire 7 S address [6:0] $end
$var wire 13 T signals [12:0] $end
$var reg 13 U signalsReg [12:0] $end
$upscope $end
$scope module fetchFF $end
$var wire 1 , clk $end
$var wire 1 V enabled $end
$var wire 1 . reset $end
$var wire 8 W D [7:0] $end
$var reg 8 X Q [7:0] $end
$upscope $end
$scope module flagsFF $end
$var wire 2 Y D [1:0] $end
$var wire 1 , clk $end
$var wire 1 ; enabled $end
$var wire 1 . reset $end
$var reg 2 Z Q [1:0] $end
$upscope $end
$scope module inputBuffer $end
$var wire 4 [ A [3:0] $end
$var wire 4 \ Y [3:0] $end
$var wire 1 7 enabled $end
$upscope $end
$scope module oprndBuffer $end
$var wire 4 ] A [3:0] $end
$var wire 4 ^ Y [3:0] $end
$var wire 1 6 enabled $end
$upscope $end
$scope module outputsFF $end
$var wire 4 _ D [3:0] $end
$var wire 1 , clk $end
$var wire 1 : enabled $end
$var wire 1 . reset $end
$var reg 4 ` Q [3:0] $end
$upscope $end
$scope module phaseFF $end
$var wire 1 , clk $end
$var wire 1 . reset $end
$var reg 1 $ Q $end
$upscope $end
$scope module programCounter $end
$var wire 1 , clk $end
$var wire 1 > enabled $end
$var wire 1 9 load $end
$var wire 12 a loadData [11:0] $end
$var wire 1 . reset $end
$var reg 12 b outValue [11:0] $end
$upscope $end
$scope module programROM $end
$var wire 12 c address [11:0] $end
$var wire 8 d data [7:0] $end
$upscope $end
$upscope $end
$upscope $end
$enddefinitions $end
#0
$dumpvars
bx d
bx c
bx b
bx a
bx `
bx _
bx ^
bx ]
bx \
b110 [
bx Z
bx Y
bx X
bx W
xV
bx U
bx T
bx S
bx R
bx Q
bx P
bx O
bx N
bx M
bx L
bx K
bx J
bx I
bx H
bx G
bx F
bx E
bx D
bx C
bx B
bx A
x@
x?
x>
bx =
x<
x;
x:
x9
x8
x7
x6
bx 5
bx 4
x3
x2
b110 1
bx 0
b0 /
0.
b110 -
0,
bx +
bx *
bx )
bx (
x'
bx &
bx %
x$
bx #
x"
bx !
$end
#2
b0 !
b0 0
b0 G
b0 I
b0 O
b0 \
b0 ^
b0 _
0:
06
07
18
03
0?
b0 D
b0 J
0;
0<
09
1>
b1000000001000 T
b1000000001000 U
12
b0 A
b0 H
b0 K
b0 Q
b1 Y
0@
b0 %
b0 5
b0 ]
b0 &
b0 =
0"
0'
1V
b0 M
b1000100 (
b1000100 B
b1000100 N
b1000100 a
b1000100 #
b1000100 4
b1000100 W
b1000100 d
b0 *
b0 E
b0 b
b0 c
b0 X
b0 Z
b0 S
0$
b0 )
b0 C
b0 L
b0 R
b0 +
b0 F
b0 `
1.
#3
0.
#5
b0 Y
02
b100 A
b100 H
b100 K
b100 Q
b100 M
b100 !
b100 0
b100 G
b100 I
b100 O
b100 \
b100 ^
b100 _
16
08
b10 D
b10 J
1;
1<
0>
b11010000010 T
b11010000010 U
0V
b100 %
b100 5
b100 ]
b100 &
b100 =
b100001 S
1$
b1000100 X
b10011011111 (
b10011011111 B
b10011011111 N
b10011011111 a
b11011111 #
b11011111 4
b11011111 W
b11011111 d
b1 *
b1 E
b1 b
b1 c
1,
#10
0,
#15
06
18
b0 D
b0 J
0;
0<
1>
b1000000001000 T
b1000000001000 U
1V
b100000 S
0$
b100 )
b100 C
b100 L
b100 R
1,
#16
b1000110 /
#20
0,
#25
1:
0>
b1001 T
b1001 U
0V
b1111 %
b1111 5
b1111 ]
b1101 &
b1101 =
b1101001 S
1$
b11011111 X
b111101010001 (
b111101010001 B
b111101010001 N
b111101010001 a
b1010001 #
b1010001 4
b1010001 W
b1010001 d
b10 *
b10 E
b10 b
b10 c
1,
#30
0,
#35
0:
1>
b1000000001000 T
b1000000001000 U
1V
b1101000 S
0$
b100 +
b100 F
b100 `
1,
#36
b10001000 /
#40
0,
#45
b110 A
b110 H
b110 K
b110 Q
b110 M
b110 !
b110 0
b110 G
b110 I
b110 O
b110 \
b110 ^
b110 _
17
08
b10 D
b10 J
1;
1<
0>
b11010000100 T
b11010000100 U
0V
b1 %
b1 5
b1 ]
b101 &
b101 =
b101001 S
1$
b1010001 X
b101000000 (
b101000000 B
b101000000 N
b101000000 a
b1000000 #
b1000000 4
b1000000 W
b1000000 d
b11 *
b11 E
b11 b
b11 c
1,
#50
0,
#55
07
18
b0 D
b0 J
0;
0<
1>
b1000000001000 T
b1000000001000 U
1V
b101000 S
0$
b110 )
b110 C
b110 L
b110 R
1,
#56
b11001010 /
#60
0,
#65
b1 Y
12
b0 A
b0 H
b0 K
b0 Q
b0 M
b0 !
b0 0
b0 G
b0 I
b0 O
b0 \
b0 ^
b0 _
16
08
b10 D
b10 J
1;
1<
0>
b11010000010 T
b11010000010 U
0V
b0 %
b0 5
b0 ]
b100 &
b100 =
b100001 S
1$
b1000000 X
b1001111 (
b1001111 B
b1001111 N
b1001111 a
b1001111 #
b1001111 4
b1001111 W
b1001111 d
b100 *
b100 E
b100 b
b100 c
1,
#70
0,
#75
06
18
b0 D
b0 J
0;
0<
1>
b1000000001000 T
b1000000001000 U
1"
1V
b1 Z
b100010 S
0$
b0 )
b0 C
b0 L
b0 R
1,
#80
0,
#85
b0 Y
02
b1111 A
b1111 H
b1111 K
b1111 Q
b1111 M
b1111 !
b1111 0
b1111 G
b1111 I
b1111 O
b1111 \
b1111 ^
b1111 _
16
08
b10 D
b10 J
1;
1<
0>
b11010000010 T
b11010000010 U
0V
b1111 %
b1111 5
b1111 ]
b100011 S
1$
b1001111 X
b111110101010 (
b111110101010 B
b111110101010 N
b111110101010 a
b10101010 #
b10101010 4
b10101010 W
b10101010 d
b101 *
b101 E
b101 b
b101 c
1,
#90
0,
#95
06
18
b0 D
b0 J
0;
0<
1>
b1000000001000 T
b1000000001000 U
0"
1V
b0 Z
b100000 S
0$
b1111 )
b1111 C
b1111 L
b1111 R
1,
#100
0,
#105
b1001 A
b1001 H
b1001 K
b1001 Q
b10 Y
1@
b1010 !
b1010 0
b1010 G
b1010 I
b1010 O
b1010 \
b1010 ^
b1010 _
b11001 M
16
08
b11 D
b11 J
1;
1<
0>
b11011000010 T
b11011000010 U
0V
b1010 %
b1010 5
b1010 ]
b1010 &
b1010 =
b1010001 S
1$
b10101010 X
b101000101000 (
b101000101000 B
b101000101000 N
b101000101000 a
b101000 #
b101000 4
b101000 W
b101000 d
b110 *
b110 E
b110 b
b110 c
1,
#110
0,
#115
b0 Y
0@
b1001 !
b1001 0
b1001 G
b1001 I
b1001 O
b1001 \
b1001 ^
b1001 _
06
18
b0 D
b0 J
0;
0<
1>
b1000000001000 T
b1000000001000 U
b1001 A
b1001 H
b1001 K
b1001 Q
1'
1V
b1001 M
b10 Z
b1010100 S
0$
b1001 )
b1001 C
b1001 L
b1001 R
1,
#116
b11101011 /
#120
0,
#125
b1 A
b1 H
b1 K
b1 Q
b1000 !
b1000 0
b1000 G
b1000 I
b1000 O
b1000 \
b1000 ^
b1000 _
b1 M
16
08
b1 D
b1 J
1;
0>
b1001000010 T
b1001000010 U
0V
b1000 %
b1000 5
b1000 ]
b10 &
b10 =
b10101 S
1$
b101000 X
b100001001010 (
b100001001010 B
b100001001010 N
b100001001010 a
b1001010 #
b1001010 4
b1001010 W
b1001010 d
b111 *
b111 E
b111 b
b111 c
1,
#130
0,
#135
b1001 A
b1001 H
b1001 K
b1001 Q
b1001 !
b1001 0
b1001 G
b1001 I
b1001 O
b1001 \
b1001 ^
b1001 _
b1001 M
06
18
b0 D
b0 J
0;
1>
b1000000001000 T
b1000000001000 U
0'
1V
b0 Z
b10000 S
0$
1,
#136
b100001100 /
#140
0,
#145
b1010 A
b1010 H
b1010 K
b1010 Q
b1010 M
b1010 !
b1010 0
b1010 G
b1010 I
b1010 O
b1010 \
b1010 ^
b1010 _
16
08
b10 D
b10 J
1;
1<
0>
b11010000010 T
b11010000010 U
0V
b1010 %
b1010 5
b1010 ]
b100 &
b100 =
b100001 S
1$
b1001010 X
b101000101100 (
b101000101100 B
b101000101100 N
b101000101100 a
b101100 #
b101100 4
b101100 W
b101100 d
b1000 *
b1000 E
b1000 b
b1000 c
1,
#150
0,
#155
06
18
b0 D
b0 J
0;
0<
1>
b1000000001000 T
b1000000001000 U
1V
b100000 S
0$
b1010 )
b1010 C
b1010 L
b1010 R
1,
#160
0,
#165
b10 Y
1@
b1110 A
b1110 H
b1110 K
b1110 Q
b1100 !
b1100 0
b1100 G
b1100 I
b1100 O
b1100 \
b1100 ^
b1100 _
b11110 M
16
08
b1 D
b1 J
1;
0>
b1001000010 T
b1001000010 U
0V
b1100 %
b1100 5
b1100 ]
b10 &
b10 =
b10001 S
1$
b101100 X
b110010100001 (
b110010100001 B
b110010100001 N
b110010100001 a
b10100001 #
b10100001 4
b10100001 W
b10100001 d
b1001 *
b1001 E
b1001 b
b1001 c
1,
#170
0,
#175
b1010 A
b1010 H
b1010 K
b1010 Q
b0 Y
0@
b1010 !
b1010 0
b1010 G
b1010 I
b1010 O
b1010 \
b1010 ^
b1010 _
b1010 M
06
18
b0 D
b0 J
0;
1>
b1000000001000 T
b1000000001000 U
1'
1V
b10 Z
b10100 S
0$
1,
#176
b100101101 /
#180
0,
#185
b1011 A
b1011 H
b1011 K
b1011 Q
b0 Y
0@
b1 !
b1 0
b1 G
b1 I
b1 O
b1 \
b1 ^
b1 _
b1011 M
16
08
b11 D
b11 J
1;
1<
0>
b11011000010 T
b11011000010 U
0V
b1 %
b1 5
b1 ]
b1010 &
b1010 =
b1010101 S
1$
b10100001 X
b111101011 (
b111101011 B
b111101011 N
b111101011 a
b11101011 #
b11101011 4
b11101011 W
b11101011 d
b1010 *
b1010 E
b1010 b
b1010 c
1,
#190
0,
#195
b1011 !
b1011 0
b1011 G
b1011 I
b1011 O
b1011 \
b1011 ^
b1011 _
06
18
b0 D
b0 J
0;
0<
1>
b1000000001000 T
b1000000001000 U
b1011 A
b1011 H
b1011 K
b1011 Q
0'
1V
b1011 M
b0 Z
b1010000 S
0$
b1011 )
b1011 C
b1011 L
b1011 R
1,
#196
b101001110 /
#200
0,
#205
b100 A
b100 H
b100 K
b100 Q
b1011 !
b1011 0
b1011 G
b1011 I
b1011 O
b1011 \
b1011 ^
b1011 _
b100 M
16
08
b100 D
b100 J
1;
1<
0>
b11100000010 T
b11100000010 U
0V
b1011 %
b1011 5
b1011 ]
b1110 &
b1110 =
b1110001 S
1$
b11101011 X
b1011xxxxxxxx (
b1011xxxxxxxx B
b1011xxxxxxxx N
b1011xxxxxxxx a
bx #
bx 4
bx W
bx d
b1011 *
b1011 E
b1011 b
b1011 c
1,
#210
0,
#215
b100 !
b100 0
b100 G
b100 I
b100 O
b100 \
b100 ^
b100 _
06
18
b0 D
b0 J
0;
0<
1>
b1000000001000 T
b1000000001000 U
b100 A
b100 H
b100 K
b100 Q
1V
b100 M
b1110000 S
0$
b100 )
b100 C
b100 L
b100 R
1,
#216
b110010000 /
#220
0,
#225
b101 A
b101 H
b101 K
b101 Q
b10 Y
1@
bx !
bx 0
bx G
bx I
bx O
bx \
bx ^
bx _
b10101 M
1:
16
17
13
1?
b111 D
b111 J
1;
1<
19
b1111111111111 T
b1111111111111 U
0V
bx (
bx B
bx N
bx a
bx %
bx 5
bx ]
bx &
bx =
bx001 S
1$
bx X
b1100 *
b1100 E
b1100 b
b1100 c
1,
#230
0,
#235
b0 Y
0@
b101 !
b101 0
b101 G
b101 I
b101 O
b101 \
b101 ^
b101 _
b101 M
0:
06
07
03
0?
b0 D
b0 J
0;
0<
09
b1000000001000 T
b1000000001000 U
1'
1V
bx *
bx E
bx b
bx c
b10 Z
bx100 S
0$
b101 )
b101 C
b101 L
b101 R
bx +
bx F
bx `
1,
#240
0,
#245
b10 Y
1@
bx !
bx 0
bx G
bx I
bx O
bx \
bx ^
bx _
b10101 M
1:
16
17
13
1?
b111 D
b111 J
1;
1<
19
b1111111111111 T
b1111111111111 U
0V
bx101 S
1$
1,
#250
0,
#255
b0 Y
0@
b101 !
b101 0
b101 G
b101 I
b101 O
b101 \
b101 ^
b101 _
b101 M
0:
06
07
03
0?
b0 D
b0 J
0;
0<
09
b1000000001000 T
b1000000001000 U
1V
bx100 S
0$
1,
#260
0,
#265
b10 Y
1@
bx !
bx 0
bx G
bx I
bx O
bx \
bx ^
bx _
b10101 M
1:
16
17
13
1?
b111 D
b111 J
1;
1<
19
b1111111111111 T
b1111111111111 U
0V
bx101 S
1$
1,
#270
0,
#275
b0 Y
0@
b101 !
b101 0
b101 G
b101 I
b101 O
b101 \
b101 ^
b101 _
b101 M
0:
06
07
03
0?
b0 D
b0 J
0;
0<
09
b1000000001000 T
b1000000001000 U
1V
bx100 S
0$
1,
#280
0,
#285
b10 Y
1@
bx !
bx 0
bx G
bx I
bx O
bx \
bx ^
bx _
b10101 M
1:
16
17
13
1?
b111 D
b111 J
1;
1<
19
b1111111111111 T
b1111111111111 U
0V
bx101 S
1$
1,
#290
0,
#295
b0 Y
0@
b101 !
b101 0
b101 G
b101 I
b101 O
b101 \
b101 ^
b101 _
b101 M
0:
06
07
03
0?
b0 D
b0 J
0;
0<
09
b1000000001000 T
b1000000001000 U
1V
bx100 S
0$
1,
#300
0,
#305
b10 Y
1@
bx !
bx 0
bx G
bx I
bx O
bx \
bx ^
bx _
b10101 M
1:
16
17
13
1?
b111 D
b111 J
1;
1<
19
b1111111111111 T
b1111111111111 U
0V
bx101 S
1$
1,
#310
0,
#315
b0 Y
0@
b101 !
b101 0
b101 G
b101 I
b101 O
b101 \
b101 ^
b101 _
b101 M
0:
06
07
03
0?
b0 D
b0 J
0;
0<
09
b1000000001000 T
b1000000001000 U
1V
bx100 S
0$
1,
#320
0,
#325
b10 Y
1@
bx !
bx 0
bx G
bx I
bx O
bx \
bx ^
bx _
b10101 M
1:
16
17
13
1?
b111 D
b111 J
1;
1<
19
b1111111111111 T
b1111111111111 U
0V
bx101 S
1$
1,
#330
0,
#335
b0 Y
0@
b101 !
b101 0
b101 G
b101 I
b101 O
b101 \
b101 ^
b101 _
b101 M
0:
06
07
03
0?
b0 D
b0 J
0;
0<
09
b1000000001000 T
b1000000001000 U
1V
bx100 S
0$
1,
#340
0,
#345
b10 Y
1@
bx !
bx 0
bx G
bx I
bx O
bx \
bx ^
bx _
b10101 M
1:
16
17
13
1?
b111 D
b111 J
1;
1<
19
b1111111111111 T
b1111111111111 U
0V
bx101 S
1$
1,
#350
0,
#355
b0 Y
0@
b101 !
b101 0
b101 G
b101 I
b101 O
b101 \
b101 ^
b101 _
b101 M
0:
06
07
03
0?
b0 D
b0 J
0;
0<
09
b1000000001000 T
b1000000001000 U
1V
bx100 S
0$
1,
#360
0,
#365
b10 Y
1@
bx !
bx 0
bx G
bx I
bx O
bx \
bx ^
bx _
b10101 M
1:
16
17
13
1?
b111 D
b111 J
1;
1<
19
b1111111111111 T
b1111111111111 U
0V
bx101 S
1$
1,
#370
0,
#375
b0 Y
0@
b101 !
b101 0
b101 G
b101 I
b101 O
b101 \
b101 ^
b101 _
b101 M
0:
06
07
03
0?
b0 D
b0 J
0;
0<
09
b1000000001000 T
b1000000001000 U
1V
bx100 S
0$
1,
#380
0,
#385
b10 Y
1@
bx !
bx 0
bx G
bx I
bx O
bx \
bx ^
bx _
b10101 M
1:
16
17
13
1?
b111 D
b111 J
1;
1<
19
b1111111111111 T
b1111111111111 U
0V
bx101 S
1$
1,
#390
0,
#395
b0 Y
0@
b101 !
b101 0
b101 G
b101 I
b101 O
b101 \
b101 ^
b101 _
b101 M
0:
06
07
03
0?
b0 D
b0 J
0;
0<
09
b1000000001000 T
b1000000001000 U
1V
bx100 S
0$
1,
#400
0,
#405
b10 Y
1@
bx !
bx 0
bx G
bx I
bx O
bx \
bx ^
bx _
b10101 M
1:
16
17
13
1?
b111 D
b111 J
1;
1<
19
b1111111111111 T
b1111111111111 U
0V
bx101 S
1$
1,
#410
0,
#415
b0 Y
0@
b101 !
b101 0
b101 G
b101 I
b101 O
b101 \
b101 ^
b101 _
b101 M
0:
06
07
03
0?
b0 D
b0 J
0;
0<
09
b1000000001000 T
b1000000001000 U
1V
bx100 S
0$
1,
#420
0,
#425
b10 Y
1@
bx !
bx 0
bx G
bx I
bx O
bx \
bx ^
bx _
b10101 M
1:
16
17
13
1?
b111 D
b111 J
1;
1<
19
b1111111111111 T
b1111111111111 U
0V
bx101 S
1$
1,
#430
0,
#435
b0 Y
0@
b101 !
b101 0
b101 G
b101 I
b101 O
b101 \
b101 ^
b101 _
b101 M
0:
06
07
03
0?
b0 D
b0 J
0;
0<
09
b1000000001000 T
b1000000001000 U
1V
bx100 S
0$
1,
#440
0,
#445
b10 Y
1@
bx !
bx 0
bx G
bx I
bx O
bx \
bx ^
bx _
b10101 M
1:
16
17
13
1?
b111 D
b111 J
1;
1<
19
b1111111111111 T
b1111111111111 U
0V
bx101 S
1$
1,
#450
0,
#455
b0 Y
0@
b101 !
b101 0
b101 G
b101 I
b101 O
b101 \
b101 ^
b101 _
b101 M
0:
06
07
03
0?
b0 D
b0 J
0;
0<
09
b1000000001000 T
b1000000001000 U
1V
bx100 S
0$
1,
#460
0,
#465
b10 Y
1@
bx !
bx 0
bx G
bx I
bx O
bx \
bx ^
bx _
b10101 M
1:
16
17
13
1?
b111 D
b111 J
1;
1<
19
b1111111111111 T
b1111111111111 U
0V
bx101 S
1$
1,
#470
0,
#475
b0 Y
0@
b101 !
b101 0
b101 G
b101 I
b101 O
b101 \
b101 ^
b101 _
b101 M
0:
06
07
03
0?
b0 D
b0 J
0;
0<
09
b1000000001000 T
b1000000001000 U
1V
bx100 S
0$
1,
#480
0,
#485
b10 Y
1@
bx !
bx 0
bx G
bx I
bx O
bx \
bx ^
bx _
b10101 M
1:
16
17
13
1?
b111 D
b111 J
1;
1<
19
b1111111111111 T
b1111111111111 U
0V
bx101 S
1$
1,
#490
0,
#495
b0 Y
0@
b101 !
b101 0
b101 G
b101 I
b101 O
b101 \
b101 ^
b101 _
b101 M
0:
06
07
03
0?
b0 D
b0 J
0;
0<
09
b1000000001000 T
b1000000001000 U
1V
bx100 S
0$
1,
